<?xml version="1.0" encoding="UTF-8" standalone="no"?>
<!-- Created with Inkscape (http://www.inkscape.org/) -->

<svg
   version="1.1"
   id="svg1"
   width="1524.5387"
   height="2018.6764"
   viewBox="0 0 1524.5387 2018.6764"
   sodipodi:docname="render-transparent.png"
   inkscape:version="0.0"
   xmlns:inkscape="http://www.inkscape.org/namespaces/inkscape"
   xmlns:sodipodi="http://sodipodi.sourceforge.net/DTD/sodipodi-0.dtd"
   xmlns="http://www.w3.org/2000/svg"
   xmlns:svg="http://www.w3.org/2000/svg">
  <defs
     id="defs1" />
  <sodipodi:namedview
     id="namedview1"
     pagecolor="#505050"
     bordercolor="#ffffff"
     borderopacity="1"
     inkscape:showpageshadow="0"
     inkscape:pageopacity="0"
     inkscape:pagecheckerboard="1"
     inkscape:deskcolor="#d1d1d1"
     inkscape:zoom="0.37679226"
     inkscape:cx="180.4708"
     inkscape:cy="1175.7142"
     inkscape:window-width="1868"
     inkscape:window-height="1012"
     inkscape:window-x="0"
     inkscape:window-y="0"
     inkscape:window-maximized="1"
     inkscape:current-layer="g1" />
  <g
     inkscape:groupmode="layer"
     inkscape:label="Image"
     id="g1"
     transform="translate(3158.8973,-8.6192061)">
    <g
       id="g11"
       transform="translate(-3460.5406,-131.36542)">
      <path
         id="path13"
         style="display:inline;fill:#303030"
         d="m 789.33333,2157.0908 c -8.24857,-2.3602 -21.25015,-12.2475 -56,-42.586 -105.0879,-91.7476 -202.8421,-166.2172 -300,-228.5415 -32.90599,-21.1083 -39.813,-26.1174 -42.84383,-31.0714 -2.08968,-3.4156 -5.83923,-23.9866 -4.5983,-25.2275 0.33072,-0.3308 86.29049,63.2419 191.02172,141.2725 104.73123,78.0306 192.82041,143.1649 195.75375,144.7428 20.09761,10.8115 40.10525,6.6214 98.66666,-20.6635 82.21281,-38.3044 947.16197,-446.3455 949.25907,-447.8144 4.1418,-2.901 4.2468,-2.5873 3.1856,9.516 -1.8371,20.9528 8.0594,15.0713 -142.3434,84.5943 -154.7184,71.5178 -175.2189,81.2146 -177.4346,83.9272 -2.6989,3.3042 -7.512,5.6474 -12.5649,6.117 -4.6766,0.4347 -52.8779,23.0973 -148.1018,69.6325 -35.2,17.202 -71.0296,34.6667 -79.6213,38.8104 -8.5917,4.1438 -15.6417,8.2755 -15.6666,9.1816 -0.061,2.2192 -15.3951,9.8517 -17.8781,8.8989 -1.112,-0.4267 -81.4337,39.0447 -184.402,90.6181 -100.33759,50.2557 -188.98453,94.1352 -196.99323,97.51 -27.64458,11.6492 -45.69675,15.0152 -59.43874,11.083 z m -6.77595,-45.8254 c -3.36011,-1.0351 -12.70128,-6.5433 -20.75815,-12.2404 -31.14831,-22.0252 -366.49526,-272.0293 -372.84867,-277.962 -10.58209,-9.8813 -7.25323,-11.8553 55.64794,-32.9996 l 43.13902,-14.5012 20.46457,14.043 c 11.25552,7.7236 32.16458,21.953 46.46458,31.6208 14.3,9.6679 78.29096,53.0825 142.20215,96.4769 l 116.20215,78.899 12.11706,2.6991 c 15.43111,3.4372 30.1636,3.4251 47.16138,-0.039 l 13.43496,-2.7378 159.44113,-74.502 c 182.2325,-85.1516 167.3535,-76.4233 147.8138,-86.7109 -6.3951,-3.3669 -11.9311,-6.4254 -12.3023,-6.7966 -0.3712,-0.3712 10.9439,-5.6646 25.1446,-11.7632 l 25.8194,-11.0884 15.2572,7.7382 15.2571,7.7383 81.8924,-36.1867 c 83.2477,-36.7856 86.1853,-38.3371 80.4826,-42.5071 -2.1524,-1.5738 -1.8943,-1.9267 2.855,-3.9024 2.8717,-1.1947 9.1214,-3.9405 13.888,-6.1019 6.3562,-2.882 9.8153,-3.7165 12.975,-3.1299 6.0972,1.1318 253.6917,-107.6413 253.6917,-111.4517 0,-3.2741 3.3067,-1.9 -67.0947,-27.8819 l -62.4281,-23.0393 -11.6934,4.6561 -11.6934,4.656 -5.8785,-2.3843 c -8.5532,-3.4691 -10.7619,-3.1294 -29.8786,4.5954 -13.8829,5.6099 -17.4152,7.566 -17.7447,9.8262 -0.622,4.2658 -39.3041,19.6407 -46.5435,18.4995 -7.5466,-1.1896 -150.1577,55.7495 -150.7993,60.2083 -0.3199,2.2232 0.5991,3.3411 3.831,4.6598 l 4.2518,1.735 -19.2931,7.682 -19.2931,7.682 -1.663,15.5645 -1.663,15.5644 7.8206,7.3915 c 4.3013,4.0653 8.9526,8.0222 10.3362,8.793 1.8344,1.022 2.2938,2.2857 1.6962,4.6667 l -0.8193,3.2651 -11.6033,-0.4788 -11.6033,-0.4789 -33.2432,-16.4883 -33.2431,-16.4883 -4.2119,1.7327 c -2.3166,0.953 -17.5978,7.0644 -33.9582,13.5808 l -29.7463,11.848 -53.1885,-26.5677 c -29.2537,-14.6122 -52.8698,-26.8884 -52.4803,-27.2803 0.3895,-0.3919 63.2022,-23.8139 139.5838,-52.049 95.0862,-35.1494 138.9998,-51.9818 139.2697,-53.3832 0.256,-1.3295 -1.3732,-2.6727 -4.649,-3.8329 -11.0265,-3.9053 -11.1656,-7.1578 -0.4035,-9.4417 9.9203,-2.1052 18.7569,-1.1983 23.3235,2.3938 7.3977,5.819 6.1832,6.1572 89.1168,-24.8133 l 78.1831,-29.1965 143.7018,51.8766 c 79.036,28.5321 154.1662,55.4388 166.956,59.7926 12.7898,4.3539 23.8325,8.4945 24.5393,9.2013 2.4473,2.4472 -6.6679,8.7799 -27.327,18.9853 -17.9852,8.8845 -767.4198,361.7924 -876.4665,412.727 -104.60109,48.8582 -119.22799,53.854 -139.44262,47.6262 z m 42.45013,-121.8191 c -8.43545,-1.8967 -12.46305,-3.7891 -22,-10.3372 -6.4208,-4.4085 -84.23281,-57.1254 -172.91559,-117.1485 l -161.24142,-109.133 19.57475,-6.5249 c 25.86201,-8.6207 25.84427,-8.7161 -4.95372,-26.6582 l -7.8618,-4.58 -19.94353,6.5513 c -10.96894,3.6032 -20.23822,6.2566 -20.59841,5.8964 -2.5286,-2.5286 1.79605,-8.8944 10.43389,-15.3584 l 9.4052,-7.0384 74.21322,-23.8803 c 84.47968,-27.1838 75.59383,-25.0786 84.00733,-19.9018 8.26499,5.0855 5.42821,5.45 37.41111,-4.8064 34.67063,-11.1183 34.31014,-10.844 23.36953,-17.7824 l -5.77341,-3.6613 24.36598,-7.7152 24.36598,-7.7152 36.14506,19.5069 36.14507,19.507 h 24.24372 24.24373 l 15.84457,8.1896 c 8.71451,4.5043 15.83538,8.5543 15.82415,9 -0.0788,3.1264 -5.65153,5.8147 -29.56141,14.2605 -15.76301,5.568 -27.23646,10.33 -27.44754,11.3919 -0.22889,1.1515 10.98561,8.0921 30.39652,18.8125 l 30.75922,16.9878 72.27015,-26.7403 72.27014,-26.7403 56.7034,28.1998 56.7033,28.1999 33.8873,-13.5457 33.8873,-13.5457 32.8911,16.0997 32.8912,16.0997 13.9145,0.8514 13.9146,0.8513 2.2703,-8.1659 c 1.2487,-4.4913 2.2703,-8.447 2.2703,-8.7904 0,-0.3434 -2.55,-1.7786 -5.6666,-3.1893 -3.1167,-1.4107 -7.9841,-4.9831 -10.8164,-7.9386 l -5.1498,-5.3737 0.9594,-10.8382 c 1.1903,-13.4459 0.1696,-12.5235 24.4592,-22.1061 21.8671,-8.6269 24.0007,-10.6101 15.9137,-14.792 l -4.3006,-2.224 69.3006,-27.5581 c 60.0938,-23.8969 69.8319,-27.405 73.3005,-26.4055 5.8427,1.6837 56.1349,-18.5661 55.7412,-22.4438 -0.2101,-2.0697 2.4437,-3.6211 14.1017,-8.244 l 14.3605,-5.6944 8.0796,2.9071 8.0796,2.9071 10.4854,-4.2183 c 5.7669,-2.3201 11.3985,-4.2151 12.5146,-4.2112 3.4955,0.012 120.3174,43.6356 119.0133,44.4416 -4.505,2.7842 -238.6548,104.8989 -240.534,104.8989 -1.2931,0 -2.7,-0.5644 -3.1263,-1.2542 -1.0599,-1.7149 -42.0489,16.5894 -42.0489,18.7776 0,0.5456 1.2586,1.8736 2.7969,2.9511 l 2.7969,1.959 -2.4636,1.2688 c -1.3549,0.6978 -36.2694,16.1537 -77.5877,34.3465 l -75.1242,33.0776 -13.5425,-7.0901 c -7.4484,-3.8995 -14.0139,-7.5044 -14.5901,-8.0108 -0.5761,-0.5064 -15.1451,5.1307 -32.3754,12.5269 -37.275,16.0004 -36.7731,15.2729 -17.5578,25.4534 l 13.0192,6.8977 -156.3525,72.864 c -125.53096,58.5005 -158.58666,73.3914 -167.68587,75.5389 -14.12389,3.3335 -33.86826,3.3907 -48.32582,0.1399 z m 183.32289,-168.25 c 36.1183,-14.742 66.5439,-27.6377 67.6125,-28.6571 2.5341,-2.4176 1.8384,-3.0329 -12.544,-11.095 l -11.9343,-6.6899 5.2677,-2.2023 c 2.8972,-1.2112 6.6177,-2.7161 8.2677,-3.3441 6.4746,-2.4644 3.4504,-5.6122 -14.3229,-14.9084 -13.6043,-7.1155 -17.7748,-8.7495 -19.6411,-7.6948 -1.3031,0.7364 -6.0545,2.7832 -10.5585,4.5484 l -8.1892,3.2096 -10.8769,-5.8117 c -5.98225,-3.1964 -12.49713,-6.7467 -14.47746,-7.8896 l -3.60061,-2.0779 L 916,1764.4072 c -76.55986,29.3623 -70.36454,25.2411 -63.52845,42.2595 l 4.55248,11.3333 16.48798,9.9239 16.48799,9.9239 23.33333,4.9538 c 12.83334,2.7246 24.682,5.0089 26.33037,5.0761 1.64836,0.067 32.54836,-11.9393 68.6667,-26.6814 z M 916,1838.8378 l -23.33333,-4.9973 -16,-9.4788 -16,-9.4787 -3.67482,-8.9889 c -2.02115,-4.9439 -3.44406,-9.2197 -3.16202,-9.5017 0.28204,-0.282 29.38006,-11.6214 64.66226,-25.1986 l 64.14946,-24.6857 13.8194,7.4126 c 16.15485,8.6654 14.75875,8.4879 27.53905,3.4999 l 10,-3.9029 11.6667,6.1441 c 13.737,7.2344 13.6058,6.9424 4.6666,10.3886 -11.1978,4.3169 -10.4244,6.9806 4.2777,14.7323 6.6525,3.5076 11.6343,6.8387 11.0706,7.4024 -1.0926,1.0926 -120.9702,50.4585 -124.34827,51.2069 -1.1,0.2437 -12.5,-1.8057 -25.33333,-4.5542 z m -115.20852,-24.2194 c 24.68964,-9.5437 28.45676,-11.4078 34.46404,-17.0542 5.0721,-4.7674 9.6555,-7.4322 18.48425,-10.7465 8.70992,-3.2697 11.63373,-4.9578 11.32889,-6.5407 -0.43715,-2.2699 -20.73433,-14.6495 -29.84753,-18.2044 l -5.44554,-2.1243 -20.81539,7.8574 -20.8154,7.8574 -12.03985,-7.2179 -12.03985,-7.2178 -27.89299,10.2 c -21.72734,7.9453 -27.82557,10.6832 -27.58795,12.3863 0.21775,1.5606 62.07981,41.5196 64.27819,41.5196 0.11527,0 12.68338,-4.8217 27.92913,-10.7149 z m -53.94997,-10.5105 c -14.20384,-8.7403 -26.39696,-16.4634 -27.09582,-17.1622 -0.98199,-0.982 40.19614,-17.6124 43.60961,-17.6124 0.30959,0 5.642,3 11.84979,6.6667 13.72056,8.1041 10.67146,8.1576 34.05782,-0.5973 10.67207,-3.9951 20.05598,-7.4451 20.85315,-7.6666 2.23998,-0.6224 24.87845,12.4732 23.64268,13.6765 -0.60064,0.5848 -4.39207,2.3455 -8.42541,3.9126 -4.32739,1.6814 -9.88242,5.3428 -13.55213,8.9324 -5.34574,5.2292 -51.82121,25.7442 -58.31723,25.7422 -0.43852,-2e-4 -12.41863,-7.1515 -26.62246,-15.8919 z m -68.61853,-62.2574 c 37.53123,-13.1238 48.36758,-17.4155 48.87517,-19.3565 0.35871,-1.3717 -0.0416,-2.5122 -0.88964,-2.5345 -3.15397,-0.083 3.26515,-2.589 35.28266,-13.7745 18.05347,-6.307 33.70347,-11.8046 34.77778,-12.2169 5.90105,-2.2644 -4.64321,-9.7487 -34.56084,-24.5313 l -10.37478,-5.1263 -38,12.9952 -38,12.9952 -4,-1.8768 -4,-1.8767 -42.66666,14.5903 c -46.7649,15.9917 -54,18.6848 -54,20.1 0,0.5214 4.35,3.7369 9.66666,7.1455 37.71994,24.1827 47.15891,30.0798 48.33334,30.1969 0.73333,0.073 23.03367,-7.4553 49.55631,-16.7296 z m -63.95545,2.6523 c -7.91953,-4.8486 -14.21953,-8.9813 -14,-9.1838 0.21952,-0.2024 37.45806,-13.0265 82.7523,-28.4978 l 82.35317,-28.1298 11.21339,6.2769 c 6.16736,3.4524 11.01427,6.5968 10.77091,6.9877 -0.24336,0.3909 -16.08986,6.1107 -35.21444,12.7107 l -34.77197,12 -0.0188,3.3701 -0.0188,3.3701 -42.58889,14.9632 c -23.42388,8.2298 -43.37388,14.9599 -44.33333,14.9558 -0.95944,0 -8.22406,-3.9745 -16.14358,-8.8231 z m 762.81947,-5.9906 c 34.4816,-14.7061 43.0347,-18.803 42.5556,-20.384 -0.472,-1.5578 -9.8702,-6.5253 -30.175,-15.9491 l -12.5325,-5.8165 -33.8009,14.1483 c -22.9247,9.5957 -33.8009,14.7935 -33.8009,16.1536 0,2.0651 38.3638,20.9436 43.087,21.2027 1.3312,0.073 12.4312,-4.1367 24.6667,-9.355 z m -40.6896,-2.2871 c -8.9481,-4.1543 -15.8481,-7.9329 -15.3333,-8.397 0.5147,-0.464 13.113,-5.9563 27.9961,-12.205 l 27.0601,-11.3613 16.1528,7.1932 c 8.8841,3.9562 16.3789,7.4192 16.6552,7.6955 0.4066,0.4066 -50.237,22.7252 -54.9283,24.2068 -0.7333,0.2316 -8.6545,-2.9779 -17.6026,-7.1322 z m -489.38718,-19.5109 -26.98978,-14.9321 24.67913,-8.5577 24.67912,-8.5577 3.31066,-4.9714 c 5.63421,-8.4606 5.1116,-9.1835 -13.17022,-18.2177 l -16.48087,-8.1443 h -26.31412 -26.31412 l -70.20501,-37.6761 C 681.59226,1594.9353 647,1576.6262 643.33333,1574.9702 l -6.66666,-3.0108 -36.66667,11.1673 -36.66667,11.1673 -7.77156,-3.8858 -7.77157,-3.8858 -7.17837,1.6064 -7.17837,1.6065 -10.88785,-7.1481 -10.88785,-7.1481 10.05255,-3.0569 c 12.1616,-3.6983 12.60795,-5.8202 2.32087,-11.0331 l -7.0882,-3.5918 -10.50273,3.0534 -10.50273,3.0535 -16.30209,-10.6539 C 462.33944,1541.907 460.36109,1540 465.93074,1540 c 4.40711,0 6.07053,-3.7266 2.7479,-6.1561 -2.81788,-2.0605 -3.69221,-1.6349 13.23808,-6.444 11.4244,-3.2452 14.01807,-4.7875 14.06286,-8.3627 0.0112,-0.8961 3.17042,-2.5328 7.02042,-3.637 3.85,-1.1042 36.4,-10.1551 72.33333,-20.1131 l 65.33334,-18.1055 35.71793,17.6153 35.71793,17.6153 88.28207,-25.7679 c 48.55514,-14.1724 89.56623,-26.0225 91.13575,-26.3336 1.75082,-0.347 43.83999,17.0551 108.90675,45.0283 l 106.053,45.594 45.4586,-15.4429 45.4585,-15.4429 5.1825,2.0736 5.1824,2.0736 37.119,-12.7 c 20.4154,-6.985 39.0689,-13.3874 41.4522,-14.2276 6.2763,-2.2126 5.7043,-5.7673 -1.2639,-7.855 -7.4077,-2.2194 -13.7236,0.2485 81.9756,-32.0312 l 83.7118,-28.2363 10.2882,3.4158 c 13.6456,4.5303 21.8427,5.951 27.9364,4.8418 2.7602,-0.5024 7.1114,-0.3692 9.6692,0.296 l 4.6507,1.2095 -4.3026,1.809 c -4.5385,1.9084 -4.7926,4.9191 -0.5623,6.664 15.0185,6.1946 64.2192,21.3985 66.0077,20.3975 1.4356,-0.8033 4.9291,-0.4048 10.2383,1.168 l 8.0592,2.3874 -124.3708,46.3418 c -68.4039,25.4879 -125.0371,46.3379 -125.8514,46.3333 -0.8143,0 -3.7131,-1.5234 -6.4418,-3.3752 -5.1079,-3.4663 -19.0332,-6.3183 -22.3253,-4.5724 -0.9638,0.5111 -4.8443,1.6525 -8.6235,2.5363 -9.6973,2.2681 -10.9824,10.6 -2.3337,15.1315 l 3.5846,1.8782 -3.8565,1.3821 c -4.6458,1.6651 -410.42919,151.5799 -415.18987,153.3901 -2.89249,1.0998 -6.90274,-0.7074 -30.32311,-13.6648 z m 180.32308,-70.689 C 1056.363,1635.6362 1056,1635.8416 1056,1629.8096 v -4.5305 l 5.2802,2.6938 c 7.0224,3.5826 5.3279,3.8948 33.3441,-6.1433 26.5738,-9.5213 27.9644,-10.4265 26.8068,-17.4504 l -0.7644,-4.6378 -50.4698,-22.6027 -50.4699,-22.6027 -26.53015,8.8428 -26.53018,8.8429 v 5.248 5.2481 l -6.24472,-3.1737 -6.24472,-3.1736 -27.75528,9.2629 -27.75528,9.2629 v 5.6694 5.6693 L 949,1631.0328 c 27.68333,13.6388 50.93333,24.6315 51.6667,24.4282 0.7333,-0.2033 12.7333,-4.4494 26.6666,-9.4358 z m -33.99997,1.8779 c -1.1,-0.7004 -21.65,-10.8679 -45.66666,-22.5944 -37.16201,-18.145 -47.5682,-23.9754 -42.79181,-23.9754 2.84909,0 92.45847,44.8392 92.45847,46.2648 0,2.0093 -1.1818,2.0994 -4,0.305 z m -18.66666,-18.0952 c -12.83334,-6.2766 -33.23334,-16.218 -45.33334,-22.0919 l -22,-10.6799 23.21405,-7.8212 23.21406,-7.8212 45.78594,21.4887 c 25.18232,11.8187 45.78242,21.8552 45.77802,22.3031 -0.01,1.0408 -42.6566,16.1904 -45.3254,16.1012 -1.1,-0.037 -12.5,-5.2023 -25.33333,-11.4788 z m 84.66663,-7.7123 c -10.2368,-4.8285 -29.7696,-13.9661 -38.6666,-18.0887 -4.4,-2.0388 -14,-6.5349 -21.33337,-9.9914 -7.33333,-3.4565 -16.44912,-7.7259 -20.2573,-9.4876 -6.87048,-3.1784 -10.05268,-5.8612 -6.95224,-5.8612 3.54047,0 94.54291,43.2121 94.54291,44.8932 0,2.1713 0.6496,2.301 -7.3334,-1.4643 z m -36,-25.3789 c -24.19997,-11.2673 -44.80166,-20.9913 -45.7815,-21.6089 -1.17172,-0.7385 5.73991,-3.599 20.19223,-8.3569 l 21.97377,-7.234 46.1042,20.5749 c 25.3573,11.3162 46.1208,20.9469 46.1411,21.4015 0.033,0.7487 -42.3901,15.988 -43.9631,15.7923 -0.3667,-0.046 -20.4667,-9.3016 -44.6667,-20.5689 z M 924,1574.445 c 34.1,-11.1395 62.73912,-21.1967 63.64249,-22.3493 1.37447,-1.7537 1.14048,-8.8766 -0.34599,-10.5323 -1.18639,-1.3215 -89.24524,-40.2336 -91.09024,-40.2516 -1.21344,-0.012 -30.25626,8.5114 -64.53959,18.9406 l -62.33334,18.9621 v 5.6055 5.6055 l 44.33334,22.008 C 838.05,1584.5379 858.9,1594.4994 860,1594.5701 c 1.1,0.071 29.9,-8.9856 64,-20.1251 z m -108.22114,-5.807 c -36.48295,-18.3179 -45.3479,-23.3047 -41.4287,-23.3047 3.02005,0 82.36881,40.3085 82.74761,42.0351 0.55409,2.5256 5.30288,4.6782 -41.31891,-18.7304 z m 46.88781,18.9702 c 0,-1.0972 21.4775,-8.6881 59,-20.8528 32.45,-10.5202 59.75,-19.4081 60.66666,-19.7508 0.91667,-0.3428 1.66667,0.2157 1.66667,1.2412 0,1.2781 -18.82648,8.0313 -59.87109,21.476 -65.82007,21.5602 -61.46224,20.292 -61.46224,17.8864 z M 818,1561.3343 c -23.79364,-11.7519 -39.18968,-20.0696 -38,-20.5297 1.1,-0.4254 27.62233,-8.5881 58.9385,-18.1395 l 56.93851,-17.366 40.39483,18.1016 c 22.21715,9.9558 40.85304,18.5517 41.41308,19.102 1.06809,1.0494 -114.21501,38.9959 -117.68492,38.7371 -1.1,-0.082 -20,-9.0396 -42,-19.9055 z m -103.32617,-59.6676 0.007,-5 491.65947,-141.522 c 452.5775,-130.2723 491.6946,-141.3123 492.1006,-138.8855 0.2426,1.4501 0.19,2.8875 -0.1168,3.1943 -0.5412,0.5412 -981.69262,287.2132 -983.00377,287.2132 -0.3596,0 -0.6506,-2.25 -0.64666,-5 z M 672,1487.7739 c -19.43333,-9.5603 -44.93333,-22.0532 -56.66667,-27.762 -11.73333,-5.7088 -40.53333,-19.8128 -64,-31.3421 -23.46666,-11.5294 -51.66666,-25.3281 -62.66666,-30.6639 -11,-5.3358 -43.25,-21.129 -71.66667,-35.0961 l -51.66667,-25.3947 v -3.4513 -3.4513 l 5,2.4529 c 2.75,1.3492 80.14969,38.7114 171.99931,83.0271 l 166.99931,80.5742 6.9e-4,4.3333 c 8.9e-4,5.5868 3.24468,6.736 -37.33264,-13.2261 z m 426,14.1103 c -5.5772,-2.4274 -17.6581,-7.4527 -33.3333,-13.8656 -7.3334,-3.0002 -16.0334,-6.6085 -19.3334,-8.0186 -3.3,-1.4101 -12,-5.0101 -19.3333,-8 -7.3333,-2.9899 -16.0333,-6.5955 -19.3333,-8.0124 -9.09035,-3.903 -46.98444,-19.4784 -49.85754,-20.4926 -3.78604,-1.3366 -3.04857,-1.6408 21.30615,-8.7889 l 22.55139,-6.6189 49.3333,19.4731 c 27.1333,10.7103 50.1021,20.1808 51.0417,21.0457 1.2555,1.1557 1.6089,6.0052 1.3333,18.2959 l -0.375,16.7233 z m 8.6667,-15.4841 v -17.8851 l 195.6666,-61.4132 c 107.6167,-33.7772 195.7517,-61.343 195.8555,-61.2574 0.1038,0.086 -0.1265,7.1303 -0.5119,15.6549 l -0.7007,15.4993 -193.4881,63.0548 c -106.4185,34.6802 -194.2381,63.3197 -195.1548,63.6434 -1.2797,0.4519 -1.6666,-3.5636 -1.6666,-17.2967 z M 554,1416.552 c -85.8,-41.479 -162.24631,-78.3755 -169.8807,-81.9924 -7.63438,-3.6168 -13.63438,-6.814 -13.33333,-7.1049 0.30105,-0.2909 212.73262,-47.3999 472.07016,-104.6866 l 471.52277,-104.1578 131.1439,31.8684 c 72.1291,17.5277 156.7705,38.0838 188.0918,45.6802 31.3214,7.5965 56.5214,14.2116 56,14.7002 -1.3524,1.2674 -974.15361,281.1442 -977.14002,281.1251 C 711.11356,1491.9755 639.8,1458.031 554,1416.552 Z m 505.3333,30.0287 c -23.4666,-9.4264 -44.4666,-17.8143 -46.6666,-18.6398 l -4,-1.5008 2.8532,-1.1228 c 1.5693,-0.6175 88.524,-26.1374 193.2326,-56.7107 l 190.3793,-55.5879 47.7674,14.4589 c 26.2721,7.9524 47.7675,14.7857 47.7675,15.185 0,0.9828 -384.1379,121.3975 -386.6667,121.2074 -1.1,-0.083 -21.2,-7.8629 -44.6667,-17.2893 z" />
      <path
         style="display:inline;fill:#056103"
         d="m 310.895,1183.8825 c -5.37441,-52.131 -9.53106,-95.0242 -9.237,-95.3183 0.62319,-0.6232 39.18898,-6.5667 51.19379,-7.8896 38.74103,-4.2693 64.34716,19.7509 64.45839,60.4663 0.11276,41.2748 -39.2541,74.5489 -77.65062,65.6328 -6.57113,-1.5259 -6.37443,-3.5656 -2.88282,29.893 1.68361,16.1333 3.09759,31.5005 3.14218,34.1492 l 0.0811,4.816 -7.55571,1.5174 c -4.15564,0.8345 -8.50564,1.5172 -9.66667,1.517 -1.81426,-2e-4 -3.48434,-13.3219 -11.88262,-94.7838 z m 59.77167,2.6437 c 32.78572,-15.399 36.74488,-70.4129 6.09448,-84.6852 -10.08791,-4.6974 -46.62831,-3.1738 -51.96901,2.1669 -1.44842,1.4484 5.2506,76.5224 7.33698,82.2233 2.0888,5.7075 26.61414,5.8952 38.53755,0.295 z m 112,-7.0247 c -47.38364,-13.0447 -54.97587,-83.9249 -12.05923,-112.5835 13.81849,-9.2276 21.21461,-11.4644 38.05923,-11.5098 l 14.66666,-0.04 8.96636,4.2299 c 44.6386,21.0583 40.73113,91.9979 -6.29969,114.3698 -15.15873,7.2108 -30.24322,9.137 -43.33333,5.5332 z m 36.16001,-19.7092 c 16.92463,-7.8737 25.23545,-20.9665 26.24825,-41.3513 1.42199,-28.6208 -13.22099,-45.7743 -39.07493,-45.7743 -25.00804,0 -42.7341,17.0888 -44.38336,42.7877 -2.38124,37.1047 25.80415,58.9484 57.21004,44.3379 z m 79.70098,-3.13 -6.139,-1.963 -0.83409,-8.9321 c -1.0217,-10.9411 -1.94008,-10.3296 9.52458,-6.3426 22.07738,7.6778 40.14824,2.0549 42.41924,-13.199 1.21018,-8.1285 -2.78321,-11.824 -23.77149,-21.998 -29.48668,-14.2935 -36.72044,-24.2878 -31.23545,-43.1555 5.38554,-18.5256 27.11016,-28.3948 50.86883,-23.109 11.1018,2.4699 10.79933,2.1387 11.74846,12.8655 l 0.6632,7.4952 -6.64658,-2.5255 c -14.33862,-5.4482 -27.48618,-4.5826 -35.72787,2.3523 -11.12212,9.3587 -3.55586,20.8272 20.56057,31.1648 27.60491,11.8328 37.1126,30.1914 25.67939,49.5848 -9.85155,16.7106 -35.47502,24.6799 -57.10979,17.7621 z m 111.32298,-18.4892 c -12.91096,-5.8799 -14.82054,-12.0031 -17.50509,-56.1315 l -2.23314,-36.7083 -3.38954,0.058 c -1.86424,0.032 -5.88061,0.5406 -8.92526,1.1304 l -5.53572,1.0722 14.20239,-18.9951 c 7.81131,-10.4474 14.9171,-20.106 15.79064,-21.4637 1.32044,-2.0523 1.60148,-0.9784 1.66667,6.3682 0.11019,12.4189 0.66794,12.7216 18.43382,10.0039 7.87119,-1.2041 14.76126,-2.1858 15.31126,-2.1816 0.55,0 1,3.5297 1,7.8345 v 7.8268 L 723,1039.3118 c -8.61667,1.2787 -16.01859,2.7066 -16.44872,3.1732 -0.8006,0.8684 2.12387,56.2969 3.50907,66.5087 2.0612,15.1952 16.99385,19.2335 32.91106,8.9003 6.61526,-4.2945 6.5538,-4.3381 6.09513,4.3264 l -0.39987,7.5537 -8.45549,4.633 c -9.9044,5.427 -23.11524,7.0657 -30.36054,3.766 z m 59.47181,-10.5064 c -0.006,-0.9167 -1.20109,-22.9667 -2.65578,-49 -1.4547,-26.0334 -2.6498,-50.4562 -2.65578,-54.2729 l -0.0109,-6.9396 5,-0.8435 c 2.75,-0.464 6.00361,-1.1169 7.23025,-1.4509 1.81786,-0.4951 2.401,0.7592 3.15363,6.7831 1.14774,9.1861 1.94146,9.1805 10.41752,-0.074 17.08527,-18.6536 36.87844,-19.3145 47.79276,-1.5957 3.97759,6.4573 3.79994,6.515 10.99802,-3.5722 17.82592,-24.98074 43.62961,-25.35666 52.85976,-0.77 2.80903,7.4825 3.45495,15.2141 5.81062,69.5537 l 0.7869,18.1518 -6.59736,1.3044 -6.59735,1.3045 -0.72007,-9.4562 c -0.39603,-5.201 -1.23894,-22.1321 -1.87313,-37.6248 -1.05711,-25.8242 -1.42112,-28.7074 -4.37398,-34.6443 -8.14347,-16.3729 -25.77333,-15.5507 -39.52235,1.8431 l -5.03542,6.3703 1.67848,34.633 c 0.92317,19.0482 1.52396,37.6191 1.3351,41.2686 L 846,1115.271 l -5.91587,1.0042 c -3.25373,0.5523 -6.20443,0.7156 -6.5571,0.3629 -0.35268,-0.3526 -1.41407,-16.9905 -2.35866,-36.973 -1.89183,-40.0211 -2.90171,-45.7787 -9.20111,-52.4581 -9.48187,-10.0537 -29.43402,-3.7665 -39.48687,12.4428 l -2.67703,4.3165 2.10381,38.3502 c 1.15709,21.0926 2.10134,39.6504 2.09832,41.2397 -0.005,2.3903 -1.16854,3.1389 -6.73778,4.3333 -8.29901,1.7798 -7.93211,1.7901 -7.94526,-0.2228 z m 172.03098,-31.2887 c -9.75932,-4.9946 -13.71231,-20.9226 -8.20254,-33.0507 3.37797,-7.4356 14.6762,-17.2414 30.71848,-26.6606 l 13.62507,-8 -0.57176,-8.0603 c -1.64009,-23.12063 -22.18268,-27.12228 -41.28253,-8.0417 l -5.64015,5.6344 -0.37816,-7.4329 c -1.07641,-21.15714 35.48223,-34.47261 52.09371,-18.97366 6.21862,5.80213 7.61976,13.85866 8.78367,50.50556 0.58058,18.2799 1.49117,33.941 2.02354,34.8024 1.41562,2.2905 7.55224,1.9116 10.37224,-0.6405 l 2.4383,-2.2066 v 2.7035 c 0,1.4939 -2.6711,5.1657 -5.97018,8.2066 -7.80668,7.196 -14.91648,7.7479 -19.36312,1.5032 -3.60058,-5.0566 -3.77487,-5.0382 -10.81228,1.1377 -11.06202,9.708 -20.14886,12.5069 -27.83429,8.5736 z m 24.92852,-12.5145 c 12.11211,-5.8634 14.02543,-12.8557 11.22887,-41.0367 l -0.84415,-8.5066 -12.47808,8.3552 C 948.90226,1052.9109 944,1059.5657 944,1070.0812 c 0,13.8381 9.73192,19.8577 22.28195,13.7823 z m 59.49445,-54.1968 c -0.7208,-28.4167 -1.145,-51.88706 -0.9426,-52.15639 0.2023,-0.26933 3.0974,-0.79736 6.4337,-1.17341 l 6.0658,-0.68371 v 12.17341 c 0,16.093 2.5113,16.6949 9.63,2.30819 10.596,-21.41398 20.4901,-26.50087 32.93,-16.93043 2.8774,2.21367 3.0617,2.89619 1.7024,6.30567 -0.8384,2.10281 -2.1219,5.46393 -2.8524,7.46915 l -1.3281,3.64584 -4.7926,-2.82766 c -10.7688,-6.35376 -21.4459,-1.8673 -29.2893,12.30724 l -4,7.2287 -0.3165,36 -0.3165,36 -3.6835,0.8423 c -8.5617,1.9577 -7.8046,6.0956 -9.2404,-50.5089 z m 76.4045,-6.2134 c -0.4735,-24.26596 -1.2408,-60.09904 -1.7051,-79.62902 l -0.8442,-35.50905 5.8509,-0.61002 c 3.2179,-0.33551 5.9234,-0.55643 6.012,-0.49095 0.3969,0.29323 2.7635,157.50754 2.3778,157.95514 -0.2383,0.2765 -2.7726,0.9305 -5.6319,1.4533 l -5.1986,0.9506 z m 38.3537,11.5828 -20.132,-22.1542 16.6774,-26.77426 c 19.9406,-32.01297 17.0742,-28.51001 24.4584,-29.88953 l 6.0952,-1.13871 -16.4183,27.35599 -16.4182,27.35601 9.1789,10.1043 c 5.0485,5.5574 14.4692,15.6002 20.9349,22.3174 l 11.7558,12.213 -6.3496,0.835 c -3.4923,0.4593 -7.0923,1.0812 -8,1.3821 -0.9077,0.3009 -10.7099,-9.4223 -21.7825,-21.6071 z m 68.1321,10.5185 c -7.1341,-3.4132 -11.7527,-8.5896 -16.258,-18.2213 l -3.742,-8 v -18 c 0,-25.62411 6.0502,-41.06896 19.7917,-50.52331 22.7563,-15.65678 42.3563,-1.89366 44.5675,31.29538 l 0.6289,9.4387 -27.8274,4.62472 -27.8274,4.62471 0.4046,3.9366 c 2.8112,27.3504 25.3213,36.8696 47.3763,20.0347 l 5.9531,-4.5442 0.6303,4.8897 c 1.7187,13.3341 -28.7571,27.5924 -43.6976,20.4443 z m 14,-56.88793 c 10.6333,-1.81923 19.7833,-3.31347 20.3333,-3.32052 3.8413,-0.0492 -1.0515,-17.83737 -6.4935,-23.60753 l -4.4601,-4.72915 -7.8929,0.57092 c -13.256,0.95885 -22.1357,10.649 -25.1981,27.498 l -1.258,6.92161 2.818,-0.0128 c 1.5498,-0.007 11.5179,-1.50128 22.1513,-3.32051 z m 65.1753,42.66253 c -7.5166,-4.0848 -8.4448,-8.7378 -9.1753,-45.99587 -0.4215,-21.49516 -1.1571,-33.94148 -2,-33.84091 -0.7334,0.0875 -3.3075,0.52733 -5.7203,0.97739 -3.3138,0.61813 -4.1292,0.41215 -3.3333,-0.84211 0.5794,-0.91322 5.2536,-7.90156 10.3869,-15.52965 l 9.3333,-13.86925 0.4327,5.20203 c 0.7593,9.12911 1.8316,9.47145 19.9007,6.35348 L 1312,933.03656 v 6.05854 c 0,6.86435 0.5205,6.54021 -14.3333,8.92632 L 1288,949.57427 v 29.25569 c 0,30.15234 0.7778,35.50704 5.7574,39.63674 3.2071,2.6597 10.9139,2.1873 16.316,-1 6.1166,-3.6089 5.9266,-3.6892 5.9266,2.5063 v 5.3064 l -7,4.0145 c -7.773,4.4577 -15.3578,5.1874 -21.158,2.0353 z M 1372,1017.7415 c -29.3647,-5.1586 -46.821,-37.9317 -41.3551,-77.64185 12.6223,-91.70257 110.4602,-100.02981 110.8294,-9.43298 0.1174,28.82301 -8.5254,52.35625 -25.4743,69.36283 -12.7759,12.8194 -30.724,20.0443 -44,17.712 z m 25.2341,-18.47094 c 48.4727,-21.75326 44.7382,-117.02228 -4.5955,-117.23096 -30.2959,-0.12815 -52.6434,31.42988 -50.9581,71.9604 1.629,39.17573 25.6026,58.7118 55.5536,45.27056 z m 76.5529,-0.60014 c -2.3172,-0.52309 -6.2172,-2.11893 -8.6667,-3.54632 l -4.4536,-2.59525 -0.3317,-9.26443 c -0.2463,-6.88004 0.024,-8.67055 1.0518,-6.95695 1.6764,2.79618 11.2099,8.38483 16.3298,9.57275 13.1879,3.05986 26.2834,-9.37165 26.2834,-24.95072 0,-11.38082 -3.8838,-17.13807 -19.9654,-29.59617 -18.6051,-14.41298 -22.0645,-20.2932 -21.9635,-37.33333 0.1483,-25.03597 14.2142,-41.83454 33.8403,-40.41491 11.694,0.84586 14.7553,3.42794 14.7553,12.44565 0,8.31099 -0.086,8.37452 -5.7942,4.30259 -14.2282,-10.14892 -34.6533,1.56907 -34.4896,19.78686 0.1028,11.43802 3.211,15.38907 24.2838,30.86842 32.3742,23.78102 15.6688,85.93249 -20.8797,77.68181 z M 567.66558,933.41615 c -24.01726,-5.66896 -43.92508,-10.56453 -44.23959,-10.87905 -0.66252,-0.66252 206.74084,-501.23727 208.34076,-502.83718 0.58641,-0.58642 23.25963,-0.9088 50.38493,-0.7164 l 49.31873,0.34981 -106.07847,258 c -58.34315,141.9 -106.89679,259.95 -107.89696,262.33334 -2.27548,5.42228 1.77802,5.93074 -49.8294,-6.25052 z m 55.00109,9.74476 c 0,-2.03227 212.3833,-517.82758 213.2201,-517.82758 0.44667,0 7.03626,18.75 14.64353,41.66667 7.60726,22.91667 14.78002,42.59422 15.93945,43.7279 2.12697,2.07973 5.79878,1.34843 69.77424,-13.89678 1.80734,-0.43069 2.02717,0.0202 1.12975,2.31707 -0.61283,1.5685 -25.46462,62.72595 -55.2262,135.90545 l -54.11195,133.05365 9.71389,12.27969 c 5.34264,6.75383 17.64057,22.57321 27.32872,35.15418 l 17.61483,22.8745 -21.43881,37.1255 c -11.79134,20.41903 -21.84727,37.50909 -22.34651,37.97792 -0.49924,0.46883 -47.40771,7.25234 -104.24104,15.07446 -56.83334,7.82212 -105.28334,14.55531 -107.66667,14.96264 -2.38333,0.40733 -4.33333,0.22945 -4.33333,-0.39527 z m 237.75874,-36.9772 c -3.79935,-0.83437 -7.2823,-1.89999 -7.73989,-2.36805 -0.45758,-0.46805 7.59104,-15.43854 17.88583,-33.26775 l 18.7178,-32.41675 -2.13895,-3.26446 -2.13896,-3.26445 3.88264,0.77653 c 2.13545,0.42709 9.00642,1.49331 15.26883,2.36937 l 11.38618,1.59285 -20.7055,35.8295 c -23.05809,39.9005 -20.24933,37.12477 -34.41798,34.01321 z m 20.90792,1.18592 c 0,-0.34671 9.57077,-17.2242 21.26838,-37.50554 l 21.26838,-36.87517 -2.57719,-2.16113 c -2.69236,-2.2577 -46.6742,-60.5576 -46.1104,-61.1214 0.17765,-0.17765 34.78426,-3.6429 76.90358,-7.70056 132.28812,-12.74428 145.01192,-14.11945 147.54842,-15.94678 0.1657,-0.11934 5.1425,-19.65823 11.0595,-43.41976 5.9171,-23.76153 10.9345,-43.3789 11.1497,-43.59415 0.4869,-0.4869 59.6295,8.65033 60.2944,9.31516 0.5505,0.55048 0.1842,-0.27636 47.0312,106.18263 19.1708,43.56527 34.5514,79.51417 34.1791,79.88644 -1.243,1.24305 -382.01507,54.01105 -382.01507,52.94026 z m 13.33334,-79.72635 -15.33334,-2.6497 -22.47211,-29.2469 c -12.35966,-16.0858 -22.25475,-29.46426 -21.9891,-29.72992 0.26566,-0.26565 7.67811,0.46116 16.47211,1.61514 l 15.9891,2.09815 23.06476,30.46831 c 12.68561,16.75757 22.28561,30.38423 21.33333,30.28146 -0.95228,-0.10276 -8.63142,-1.37921 -17.06475,-2.83654 z m -43.5796,-65.65601 c -14.35457,-2.24534 -13.79937,-1.87904 -11.50379,-7.58979 2.41671,-6.01207 -5.99665,-4.72279 81.75005,-12.5276 L 990,735.76217 l 39.7522,4.42374 c 21.8637,2.43305 39.2637,4.5666 38.6667,4.74121 -2.8182,0.82422 -196.72674,19.05388 -201.25177,18.92002 -2.84192,-0.0841 -10.07795,-0.92101 -16.08006,-1.85987 z M 1090.486,742.04153 c -0.3945,-0.39452 -21.9653,-3.17975 -47.935,-6.18938 -25.9697,-3.00964 -47.39136,-5.63128 -47.60366,-5.82588 -0.21229,-0.1946 1.17788,-6.5949 3.08927,-14.22291 l 3.47529,-13.8691 40.9107,4.22186 c 22.5009,2.32203 41.202,3.94559 41.5579,3.60792 0.356,-0.33768 3.6666,-12.38289 7.357,-26.76715 l 6.7099,-26.1532 8.6396,0.3526 c 4.7518,0.19393 8.8126,0.52555 9.024,0.73693 0.2114,0.21137 -4.3243,19.21181 -10.0792,42.22318 -9.9942,39.96213 -11.873,45.15796 -15.1458,41.88513 z m -65.1527,-43.39335 C 999.3,695.86997 977.85128,693.53759 977.6695,693.46511 976.65207,693.05944 916,570.34259 916,568.6897 c 0,-1.09357 6.67745,-18.34613 14.83878,-38.33901 8.16133,-19.99288 15.1139,-37.33409 15.45014,-38.53602 0.55082,-1.96893 -2.94568,-2.28224 -35.30807,-3.1639 l -35.91943,-0.97857 -3.51623,-7.16943 -3.51622,-7.16944 h 8.71839 c 6.01921,0 20.31395,-2.69409 46.1724,-8.70199 20.59971,-4.7861 37.60905,-8.5361 37.79854,-8.33334 0.36813,0.39394 104.6359,221.7906 112.1038,238.03533 3.789,8.24214 4.105,9.64453 2.1442,9.51641 -1.2648,-0.0826 -23.5996,-2.42334 -49.633,-5.20156 z m -2.5591,-124.3403 c -31.79547,-67.636 -57.95911,-123.15673 -58.14138,-123.37939 -1.06221,-1.29762 -8.8228,0.15243 -40.31313,7.53245 -19.25751,4.51315 -35.76728,8.20573 -36.68839,8.20573 -1.01621,0 -7.64023,-17.95688 -16.84573,-45.66667 L 855.61458,375.33333 902.68839,260.66667 C 928.57898,197.6 950.1157,145.59931 950.54776,145.10958 c 0.43207,-0.48973 20.38602,43.61027 44.34213,98 23.95611,54.38973 71.84101,163.00549 106.41091,241.36836 34.57,78.36287 62.6404,142.69192 62.3789,142.95345 -0.2615,0.26154 -13.0307,-1.63489 -28.3759,-4.21427 -31.7405,-5.33526 -33.3409,-5.25351 -35.1656,1.79629 -0.7099,2.74262 -5.0078,19.68659 -9.5507,37.65326 -4.543,17.96666 -8.6523,33.10521 -9.1316,33.64121 -0.4794,0.536 -26.8862,-54.364 -58.6817,-122 z m -155.06115,-74.29964 -2.13455,-6.67491 10.87742,0.17542 c 5.98258,0.0965 17.77741,0.54647 26.21075,1 L 918,495.33333 l -22,5.09578 c -12.1,2.80268 -22.93429,5.35638 -24.0762,5.67491 -1.50816,0.42068 -2.6602,-1.2471 -4.21075,-6.09578 z m -12.15439,-36.34157 c -0.99575,-2.38334 -5.34633,-14.99953 -9.66796,-28.036 l -7.85751,-23.70266 -38.68326,0.88631 -38.68326,0.8863 -5.21982,-15.18364 c -2.87091,-8.35101 -5.45956,-15.8671 -5.75258,-16.70244 -0.54669,-1.55854 27.24128,-2.43761 78.00296,-2.4676 l 23.03057,-0.0136 14.63055,44 c 8.0468,24.2 14.63304,44.15 14.6361,44.33334 C 879.9975,467.85 874.90805,468 868.68456,468 H 857.36912 Z M 795.67955,263.77578 c 25.34198,-61.11001 46.13126,-111.20147 46.19839,-111.31434 0.12733,-0.21409 102.17632,-12.50361 103.60387,-12.47677 0.44832,0.008 -20.5967,52.06533 -46.76671,115.682 l -47.58185,115.66666 -6.56663,0.80704 c -3.61164,0.44386 -26.4559,1.24296 -50.76502,1.77577 l -44.19839,0.96875 z"
         id="path12" />
    </g>
  </g>
</svg>
