<?xml version="1.0" encoding="UTF-8" standalone="no"?>
<!-- Created with Inkscape (http://www.inkscape.org/) -->

<svg
   width="2000"
   height="2000"
   viewBox="0 0 529.16665 529.16666"
   version="1.1"
   id="svg1"
   inkscape:version="1.3.2 (091e20ef0f, 2023-11-25)"
   sodipodi:docname="aspen.svg"
   xmlns:inkscape="http://www.inkscape.org/namespaces/inkscape"
   xmlns:sodipodi="http://sodipodi.sourceforge.net/DTD/sodipodi-0.dtd"
   xmlns:xlink="http://www.w3.org/1999/xlink"
   xmlns="http://www.w3.org/2000/svg"
   xmlns:svg="http://www.w3.org/2000/svg">
  <sodipodi:namedview
     id="namedview1"
     pagecolor="#ffffff"
     bordercolor="#000000"
     borderopacity="0.25"
     inkscape:showpageshadow="2"
     inkscape:pageopacity="0.0"
     inkscape:pagecheckerboard="0"
     inkscape:deskcolor="#d1d1d1"
     inkscape:document-units="px"
     inkscape:zoom="0.075906346"
     inkscape:cx="658.70646"
     inkscape:cy="2292.2985"
     inkscape:window-width="1366"
     inkscape:window-height="690"
     inkscape:window-x="0"
     inkscape:window-y="0"
     inkscape:window-maximized="1"
     inkscape:current-layer="layer1" />
  <defs
     id="defs1">
    <filter
       style="color-interpolation-filters:sRGB"
       inkscape:label="Color Shift"
       id="filter13107"
       x="0"
       y="0"
       width="1"
       height="1">
      <feColorMatrix
         type="hueRotate"
         values="70"
         result="color1"
         id="feColorMatrix13106" />
      <feColorMatrix
         type="saturate"
         values="0.690869"
         result="color2"
         id="feColorMatrix13107" />
    </filter>
    <linearGradient
       inkscape:collect="always"
       xlink:href="#linearGradient13033"
       id="linearGradient13454"
       gradientUnits="userSpaceOnUse"
       gradientTransform="matrix(1,0,0,0.43548528,-845.4687,1744.9797)"
       x1="390.86761"
       y1="3601.5952"
       x2="390.86761"
       y2="2613.0981"
       spreadMethod="reflect" />
    <linearGradient
       id="linearGradient13033"
       inkscape:collect="always">
      <stop
         style="stop-color:#558000;stop-opacity:1;"
         offset="0"
         id="stop13033" />
      <stop
         style="stop-color:#ac9706;stop-opacity:0.79816681;"
         offset="0.5"
         id="stop13035" />
      <stop
         style="stop-color:#d79c00;stop-opacity:0.46328536;"
         offset="0.75"
         id="stop13036" />
      <stop
         style="stop-color:#cb971a;stop-opacity:0;"
         offset="1"
         id="stop13034" />
    </linearGradient>
    <linearGradient
       inkscape:collect="always"
       xlink:href="#linearGradient13033"
       id="linearGradient13455"
       gradientUnits="userSpaceOnUse"
       gradientTransform="matrix(1,0,0,0.43548528,-792.42496,1623.9659)"
       x1="390.86761"
       y1="3601.5952"
       x2="390.86761"
       y2="2613.0981"
       spreadMethod="reflect" />
    <linearGradient
       inkscape:collect="always"
       xlink:href="#linearGradient13033"
       id="linearGradient13456"
       gradientUnits="userSpaceOnUse"
       gradientTransform="matrix(1,0,0,0.43548528,-765.28403,1724.8615)"
       x1="390.86761"
       y1="3601.5952"
       x2="390.86761"
       y2="2613.0981"
       spreadMethod="reflect" />
    <linearGradient
       inkscape:collect="always"
       xlink:href="#linearGradient13033"
       id="linearGradient13457"
       gradientUnits="userSpaceOnUse"
       gradientTransform="matrix(1,0,0,0.43548528,-718.08084,1731.1176)"
       x1="390.86761"
       y1="3601.5952"
       x2="390.86761"
       y2="2613.0981"
       spreadMethod="reflect" />
    <linearGradient
       inkscape:collect="always"
       xlink:href="#linearGradient13033"
       id="linearGradient13458"
       gradientUnits="userSpaceOnUse"
       gradientTransform="matrix(1,0,0,0.43548528,-665.0371,1787.7558)"
       x1="390.86761"
       y1="3601.5952"
       x2="390.86761"
       y2="2613.0981"
       spreadMethod="reflect" />
    <linearGradient
       inkscape:collect="always"
       xlink:href="#linearGradient13033"
       id="linearGradient13459"
       gradientUnits="userSpaceOnUse"
       gradientTransform="matrix(1,0,0,0.43548528,-590.69298,1693.8552)"
       x1="390.86761"
       y1="3601.5952"
       x2="390.86761"
       y2="2613.0981"
       spreadMethod="reflect" />
    <linearGradient
       inkscape:collect="always"
       xlink:href="#linearGradient13033"
       id="linearGradient13460"
       gradientUnits="userSpaceOnUse"
       gradientTransform="matrix(1,0,0,0.43548528,-643.73673,1614.956)"
       x1="390.86761"
       y1="3601.5952"
       x2="390.86761"
       y2="2613.0981"
       spreadMethod="reflect" />
    <linearGradient
       inkscape:collect="always"
       xlink:href="#linearGradient13033"
       id="linearGradient13461"
       gradientUnits="userSpaceOnUse"
       gradientTransform="matrix(1,0,0,0.43548528,-515.13154,1787.7558)"
       x1="390.86761"
       y1="3601.5952"
       x2="390.86761"
       y2="2613.0981"
       spreadMethod="reflect" />
    <linearGradient
       inkscape:collect="always"
       xlink:href="#linearGradient13033"
       id="linearGradient13462"
       gradientUnits="userSpaceOnUse"
       gradientTransform="matrix(1,0,0,0.43548528,-484.60553,1614.956)"
       x1="390.86761"
       y1="3601.5952"
       x2="390.86761"
       y2="2613.0981"
       spreadMethod="reflect" />
    <linearGradient
       inkscape:collect="always"
       xlink:href="#linearGradient13033"
       id="linearGradient13463"
       gradientUnits="userSpaceOnUse"
       gradientTransform="matrix(1,0,0,0.43548528,-1247.6945,1712.7078)"
       x1="390.86761"
       y1="3601.5952"
       x2="390.86761"
       y2="2613.0981"
       spreadMethod="reflect" />
    <linearGradient
       inkscape:collect="always"
       xlink:href="#linearGradient13033"
       id="linearGradient13464"
       gradientUnits="userSpaceOnUse"
       gradientTransform="matrix(1,0,0,0.43548528,-1194.6508,1591.694)"
       x1="390.86761"
       y1="3601.5952"
       x2="390.86761"
       y2="2613.0981"
       spreadMethod="reflect" />
    <linearGradient
       inkscape:collect="always"
       xlink:href="#linearGradient13033"
       id="linearGradient13465"
       gradientUnits="userSpaceOnUse"
       gradientTransform="matrix(1,0,0,0.43548528,-1167.5098,1692.5896)"
       x1="390.86761"
       y1="3601.5952"
       x2="390.86761"
       y2="2613.0981"
       spreadMethod="reflect" />
    <linearGradient
       inkscape:collect="always"
       xlink:href="#linearGradient13033"
       id="linearGradient13466"
       gradientUnits="userSpaceOnUse"
       gradientTransform="matrix(1,0,0,0.43548528,-1120.3066,1698.8457)"
       x1="390.86761"
       y1="3601.5952"
       x2="390.86761"
       y2="2613.0981"
       spreadMethod="reflect" />
    <linearGradient
       inkscape:collect="always"
       xlink:href="#linearGradient13033"
       id="linearGradient13467"
       gradientUnits="userSpaceOnUse"
       gradientTransform="matrix(1,0,0,0.43548528,-1067.2629,1755.4839)"
       x1="390.86761"
       y1="3601.5952"
       x2="390.86761"
       y2="2613.0981"
       spreadMethod="reflect" />
    <linearGradient
       inkscape:collect="always"
       xlink:href="#linearGradient13033"
       id="linearGradient13468"
       gradientUnits="userSpaceOnUse"
       gradientTransform="matrix(1,0,0,0.43548528,-992.91878,1661.5833)"
       x1="390.86761"
       y1="3601.5952"
       x2="390.86761"
       y2="2613.0981"
       spreadMethod="reflect" />
    <linearGradient
       inkscape:collect="always"
       xlink:href="#linearGradient13033"
       id="linearGradient13469"
       gradientUnits="userSpaceOnUse"
       gradientTransform="matrix(1,0,0,0.43548528,-1045.9625,1582.6841)"
       x1="390.86761"
       y1="3601.5952"
       x2="390.86761"
       y2="2613.0981"
       spreadMethod="reflect" />
    <linearGradient
       inkscape:collect="always"
       xlink:href="#linearGradient13033"
       id="linearGradient13470"
       gradientUnits="userSpaceOnUse"
       gradientTransform="matrix(1,0,0,0.43548528,-917.35734,1755.4839)"
       x1="390.86761"
       y1="3601.5952"
       x2="390.86761"
       y2="2613.0981"
       spreadMethod="reflect" />
    <linearGradient
       inkscape:collect="always"
       xlink:href="#linearGradient13033"
       id="linearGradient13471"
       gradientUnits="userSpaceOnUse"
       gradientTransform="matrix(1,0,0,0.43548528,-886.83133,1582.6841)"
       x1="390.86761"
       y1="3601.5952"
       x2="390.86761"
       y2="2613.0981"
       spreadMethod="reflect" />
    <linearGradient
       inkscape:collect="always"
       xlink:href="#linearGradient13033"
       id="linearGradient13472"
       gradientUnits="userSpaceOnUse"
       gradientTransform="matrix(1,0,0,0.43548528,-463.30519,1712.7078)"
       x1="390.86761"
       y1="3601.5952"
       x2="390.86761"
       y2="2613.0981"
       spreadMethod="reflect" />
    <linearGradient
       inkscape:collect="always"
       xlink:href="#linearGradient13033"
       id="linearGradient13473"
       gradientUnits="userSpaceOnUse"
       gradientTransform="matrix(1,0,0,0.43548528,-410.26149,1591.694)"
       x1="390.86761"
       y1="3601.5952"
       x2="390.86761"
       y2="2613.0981"
       spreadMethod="reflect" />
    <linearGradient
       inkscape:collect="always"
       xlink:href="#linearGradient13033"
       id="linearGradient13474"
       gradientUnits="userSpaceOnUse"
       gradientTransform="matrix(1,0,0,0.43548528,-383.12049,1692.5896)"
       x1="390.86761"
       y1="3601.5952"
       x2="390.86761"
       y2="2613.0981"
       spreadMethod="reflect" />
    <linearGradient
       inkscape:collect="always"
       xlink:href="#linearGradient13033"
       id="linearGradient13475"
       gradientUnits="userSpaceOnUse"
       gradientTransform="matrix(1,0,0,0.43548528,-335.91729,1698.8457)"
       x1="390.86761"
       y1="3601.5952"
       x2="390.86761"
       y2="2613.0981"
       spreadMethod="reflect" />
    <linearGradient
       inkscape:collect="always"
       xlink:href="#linearGradient13033"
       id="linearGradient13476"
       gradientUnits="userSpaceOnUse"
       gradientTransform="matrix(1,0,0,0.43548528,-282.87359,1755.4839)"
       x1="390.86761"
       y1="3601.5952"
       x2="390.86761"
       y2="2613.0981"
       spreadMethod="reflect" />
    <linearGradient
       inkscape:collect="always"
       xlink:href="#linearGradient13033"
       id="linearGradient13477"
       gradientUnits="userSpaceOnUse"
       gradientTransform="matrix(1,0,0,0.43548528,-208.52947,1661.5833)"
       x1="390.86761"
       y1="3601.5952"
       x2="390.86761"
       y2="2613.0981"
       spreadMethod="reflect" />
    <linearGradient
       inkscape:collect="always"
       xlink:href="#linearGradient13033"
       id="linearGradient13478"
       gradientUnits="userSpaceOnUse"
       gradientTransform="matrix(1,0,0,0.43548528,-261.57319,1582.6841)"
       x1="390.86761"
       y1="3601.5952"
       x2="390.86761"
       y2="2613.0981"
       spreadMethod="reflect" />
    <linearGradient
       inkscape:collect="always"
       xlink:href="#linearGradient13033"
       id="linearGradient13479"
       gradientUnits="userSpaceOnUse"
       gradientTransform="matrix(1,0,0,0.43548528,-132.96803,1755.4839)"
       x1="390.86761"
       y1="3601.5952"
       x2="390.86761"
       y2="2613.0981"
       spreadMethod="reflect" />
    <linearGradient
       inkscape:collect="always"
       xlink:href="#linearGradient13033"
       id="linearGradient13480"
       gradientUnits="userSpaceOnUse"
       gradientTransform="matrix(1,0,0,0.43548528,-102.44202,1582.6841)"
       x1="390.86761"
       y1="3601.5952"
       x2="390.86761"
       y2="2613.0981"
       spreadMethod="reflect" />
    <filter
       style="color-interpolation-filters:sRGB"
       inkscape:label="Color Shift"
       id="filter13373"
       x="-0.031533163"
       y="-0.037014854"
       width="1.0630663"
       height="1.0740297">
      <feColorMatrix
         type="hueRotate"
         values="70"
         result="color1"
         id="feColorMatrix13372" />
      <feColorMatrix
         type="saturate"
         values="0.690869"
         result="color2"
         id="feColorMatrix13373" />
      <feGaussianBlur
         stdDeviation="16.441128"
         id="feGaussianBlur13373" />
    </filter>
    <filter
       style="color-interpolation-filters:sRGB"
       inkscape:label="Color Shift"
       id="filter213"
       x="0"
       y="0"
       width="1"
       height="1">
      <feColorMatrix
         type="hueRotate"
         values="70"
         result="color1"
         id="feColorMatrix212" />
      <feColorMatrix
         type="saturate"
         values="0.690869"
         result="color2"
         id="feColorMatrix213" />
    </filter>
    <filter
       style="color-interpolation-filters:sRGB"
       inkscape:label="Color Shift"
       id="filter321"
       x="-0.031533163"
       y="-0.037014853"
       width="1.0630662"
       height="1.0740297">
      <feColorMatrix
         type="hueRotate"
         values="70"
         result="color1"
         id="feColorMatrix320" />
      <feColorMatrix
         type="saturate"
         values="0.690869"
         result="color2"
         id="feColorMatrix321" />
      <feGaussianBlur
         stdDeviation="16.441128"
         id="feGaussianBlur321" />
    </filter>
    <linearGradient
       inkscape:collect="always"
       xlink:href="#linearGradient13033"
       id="linearGradient1"
       gradientUnits="userSpaceOnUse"
       gradientTransform="matrix(1,0,0,0.43548528,-845.4687,1744.9797)"
       x1="390.86761"
       y1="3601.5952"
       x2="390.86761"
       y2="2613.0981"
       spreadMethod="reflect" />
    <linearGradient
       inkscape:collect="always"
       xlink:href="#linearGradient13033"
       id="linearGradient2"
       gradientUnits="userSpaceOnUse"
       gradientTransform="matrix(1,0,0,0.43548528,-792.42496,1623.9659)"
       x1="390.86761"
       y1="3601.5952"
       x2="390.86761"
       y2="2613.0981"
       spreadMethod="reflect" />
    <linearGradient
       inkscape:collect="always"
       xlink:href="#linearGradient13033"
       id="linearGradient3"
       gradientUnits="userSpaceOnUse"
       gradientTransform="matrix(1,0,0,0.43548528,-765.28403,1724.8615)"
       x1="390.86761"
       y1="3601.5952"
       x2="390.86761"
       y2="2613.0981"
       spreadMethod="reflect" />
    <linearGradient
       inkscape:collect="always"
       xlink:href="#linearGradient13033"
       id="linearGradient4"
       gradientUnits="userSpaceOnUse"
       gradientTransform="matrix(1,0,0,0.43548528,-718.08084,1731.1176)"
       x1="390.86761"
       y1="3601.5952"
       x2="390.86761"
       y2="2613.0981"
       spreadMethod="reflect" />
    <linearGradient
       inkscape:collect="always"
       xlink:href="#linearGradient13033"
       id="linearGradient5"
       gradientUnits="userSpaceOnUse"
       gradientTransform="matrix(1,0,0,0.43548528,-665.0371,1787.7558)"
       x1="390.86761"
       y1="3601.5952"
       x2="390.86761"
       y2="2613.0981"
       spreadMethod="reflect" />
    <linearGradient
       inkscape:collect="always"
       xlink:href="#linearGradient13033"
       id="linearGradient6"
       gradientUnits="userSpaceOnUse"
       gradientTransform="matrix(1,0,0,0.43548528,-590.69298,1693.8552)"
       x1="390.86761"
       y1="3601.5952"
       x2="390.86761"
       y2="2613.0981"
       spreadMethod="reflect" />
    <linearGradient
       inkscape:collect="always"
       xlink:href="#linearGradient13033"
       id="linearGradient7"
       gradientUnits="userSpaceOnUse"
       gradientTransform="matrix(1,0,0,0.43548528,-643.73673,1614.956)"
       x1="390.86761"
       y1="3601.5952"
       x2="390.86761"
       y2="2613.0981"
       spreadMethod="reflect" />
    <linearGradient
       inkscape:collect="always"
       xlink:href="#linearGradient13033"
       id="linearGradient8"
       gradientUnits="userSpaceOnUse"
       gradientTransform="matrix(1,0,0,0.43548528,-515.13154,1787.7558)"
       x1="390.86761"
       y1="3601.5952"
       x2="390.86761"
       y2="2613.0981"
       spreadMethod="reflect" />
    <linearGradient
       inkscape:collect="always"
       xlink:href="#linearGradient13033"
       id="linearGradient9"
       gradientUnits="userSpaceOnUse"
       gradientTransform="matrix(1,0,0,0.43548528,-484.60553,1614.956)"
       x1="390.86761"
       y1="3601.5952"
       x2="390.86761"
       y2="2613.0981"
       spreadMethod="reflect" />
    <linearGradient
       inkscape:collect="always"
       xlink:href="#linearGradient13033"
       id="linearGradient10"
       gradientUnits="userSpaceOnUse"
       gradientTransform="matrix(1,0,0,0.43548528,-1247.6945,1712.7078)"
       x1="390.86761"
       y1="3601.5952"
       x2="390.86761"
       y2="2613.0981"
       spreadMethod="reflect" />
    <linearGradient
       inkscape:collect="always"
       xlink:href="#linearGradient13033"
       id="linearGradient11"
       gradientUnits="userSpaceOnUse"
       gradientTransform="matrix(1,0,0,0.43548528,-1194.6508,1591.694)"
       x1="390.86761"
       y1="3601.5952"
       x2="390.86761"
       y2="2613.0981"
       spreadMethod="reflect" />
    <linearGradient
       inkscape:collect="always"
       xlink:href="#linearGradient13033"
       id="linearGradient12"
       gradientUnits="userSpaceOnUse"
       gradientTransform="matrix(1,0,0,0.43548528,-1167.5098,1692.5896)"
       x1="390.86761"
       y1="3601.5952"
       x2="390.86761"
       y2="2613.0981"
       spreadMethod="reflect" />
    <linearGradient
       inkscape:collect="always"
       xlink:href="#linearGradient13033"
       id="linearGradient13"
       gradientUnits="userSpaceOnUse"
       gradientTransform="matrix(1,0,0,0.43548528,-1120.3066,1698.8457)"
       x1="390.86761"
       y1="3601.5952"
       x2="390.86761"
       y2="2613.0981"
       spreadMethod="reflect" />
    <linearGradient
       inkscape:collect="always"
       xlink:href="#linearGradient13033"
       id="linearGradient14"
       gradientUnits="userSpaceOnUse"
       gradientTransform="matrix(1,0,0,0.43548528,-1067.2629,1755.4839)"
       x1="390.86761"
       y1="3601.5952"
       x2="390.86761"
       y2="2613.0981"
       spreadMethod="reflect" />
    <linearGradient
       inkscape:collect="always"
       xlink:href="#linearGradient13033"
       id="linearGradient15"
       gradientUnits="userSpaceOnUse"
       gradientTransform="matrix(1,0,0,0.43548528,-992.91878,1661.5833)"
       x1="390.86761"
       y1="3601.5952"
       x2="390.86761"
       y2="2613.0981"
       spreadMethod="reflect" />
    <linearGradient
       inkscape:collect="always"
       xlink:href="#linearGradient13033"
       id="linearGradient16"
       gradientUnits="userSpaceOnUse"
       gradientTransform="matrix(1,0,0,0.43548528,-1045.9625,1582.6841)"
       x1="390.86761"
       y1="3601.5952"
       x2="390.86761"
       y2="2613.0981"
       spreadMethod="reflect" />
    <linearGradient
       inkscape:collect="always"
       xlink:href="#linearGradient13033"
       id="linearGradient17"
       gradientUnits="userSpaceOnUse"
       gradientTransform="matrix(1,0,0,0.43548528,-917.35734,1755.4839)"
       x1="390.86761"
       y1="3601.5952"
       x2="390.86761"
       y2="2613.0981"
       spreadMethod="reflect" />
    <linearGradient
       inkscape:collect="always"
       xlink:href="#linearGradient13033"
       id="linearGradient18"
       gradientUnits="userSpaceOnUse"
       gradientTransform="matrix(1,0,0,0.43548528,-886.83133,1582.6841)"
       x1="390.86761"
       y1="3601.5952"
       x2="390.86761"
       y2="2613.0981"
       spreadMethod="reflect" />
    <linearGradient
       inkscape:collect="always"
       xlink:href="#linearGradient13033"
       id="linearGradient19"
       gradientUnits="userSpaceOnUse"
       gradientTransform="matrix(1,0,0,0.43548528,-463.30519,1712.7078)"
       x1="390.86761"
       y1="3601.5952"
       x2="390.86761"
       y2="2613.0981"
       spreadMethod="reflect" />
    <linearGradient
       inkscape:collect="always"
       xlink:href="#linearGradient13033"
       id="linearGradient20"
       gradientUnits="userSpaceOnUse"
       gradientTransform="matrix(1,0,0,0.43548528,-410.26149,1591.694)"
       x1="390.86761"
       y1="3601.5952"
       x2="390.86761"
       y2="2613.0981"
       spreadMethod="reflect" />
    <linearGradient
       inkscape:collect="always"
       xlink:href="#linearGradient13033"
       id="linearGradient21"
       gradientUnits="userSpaceOnUse"
       gradientTransform="matrix(1,0,0,0.43548528,-383.12049,1692.5896)"
       x1="390.86761"
       y1="3601.5952"
       x2="390.86761"
       y2="2613.0981"
       spreadMethod="reflect" />
    <linearGradient
       inkscape:collect="always"
       xlink:href="#linearGradient13033"
       id="linearGradient22"
       gradientUnits="userSpaceOnUse"
       gradientTransform="matrix(1,0,0,0.43548528,-335.91729,1698.8457)"
       x1="390.86761"
       y1="3601.5952"
       x2="390.86761"
       y2="2613.0981"
       spreadMethod="reflect" />
    <linearGradient
       inkscape:collect="always"
       xlink:href="#linearGradient13033"
       id="linearGradient23"
       gradientUnits="userSpaceOnUse"
       gradientTransform="matrix(1,0,0,0.43548528,-282.87359,1755.4839)"
       x1="390.86761"
       y1="3601.5952"
       x2="390.86761"
       y2="2613.0981"
       spreadMethod="reflect" />
    <linearGradient
       inkscape:collect="always"
       xlink:href="#linearGradient13033"
       id="linearGradient24"
       gradientUnits="userSpaceOnUse"
       gradientTransform="matrix(1,0,0,0.43548528,-208.52947,1661.5833)"
       x1="390.86761"
       y1="3601.5952"
       x2="390.86761"
       y2="2613.0981"
       spreadMethod="reflect" />
    <linearGradient
       inkscape:collect="always"
       xlink:href="#linearGradient13033"
       id="linearGradient25"
       gradientUnits="userSpaceOnUse"
       gradientTransform="matrix(1,0,0,0.43548528,-261.57319,1582.6841)"
       x1="390.86761"
       y1="3601.5952"
       x2="390.86761"
       y2="2613.0981"
       spreadMethod="reflect" />
    <linearGradient
       inkscape:collect="always"
       xlink:href="#linearGradient13033"
       id="linearGradient26"
       gradientUnits="userSpaceOnUse"
       gradientTransform="matrix(1,0,0,0.43548528,-132.96803,1755.4839)"
       x1="390.86761"
       y1="3601.5952"
       x2="390.86761"
       y2="2613.0981"
       spreadMethod="reflect" />
    <linearGradient
       inkscape:collect="always"
       xlink:href="#linearGradient13033"
       id="linearGradient27"
       gradientUnits="userSpaceOnUse"
       gradientTransform="matrix(1,0,0,0.43548528,-102.44202,1582.6841)"
       x1="390.86761"
       y1="3601.5952"
       x2="390.86761"
       y2="2613.0981"
       spreadMethod="reflect" />
    <linearGradient
       inkscape:collect="always"
       xlink:href="#linearGradient13033"
       id="linearGradient28"
       gradientUnits="userSpaceOnUse"
       gradientTransform="matrix(1,0,0,0.43548528,-845.4687,1744.9797)"
       x1="390.86761"
       y1="3601.5952"
       x2="390.86761"
       y2="2613.0981"
       spreadMethod="reflect" />
    <linearGradient
       inkscape:collect="always"
       xlink:href="#linearGradient13033"
       id="linearGradient29"
       gradientUnits="userSpaceOnUse"
       gradientTransform="matrix(1,0,0,0.43548528,-792.42496,1623.9659)"
       x1="390.86761"
       y1="3601.5952"
       x2="390.86761"
       y2="2613.0981"
       spreadMethod="reflect" />
    <linearGradient
       inkscape:collect="always"
       xlink:href="#linearGradient13033"
       id="linearGradient30"
       gradientUnits="userSpaceOnUse"
       gradientTransform="matrix(1,0,0,0.43548528,-765.28403,1724.8615)"
       x1="390.86761"
       y1="3601.5952"
       x2="390.86761"
       y2="2613.0981"
       spreadMethod="reflect" />
    <linearGradient
       inkscape:collect="always"
       xlink:href="#linearGradient13033"
       id="linearGradient31"
       gradientUnits="userSpaceOnUse"
       gradientTransform="matrix(1,0,0,0.43548528,-718.08084,1731.1176)"
       x1="390.86761"
       y1="3601.5952"
       x2="390.86761"
       y2="2613.0981"
       spreadMethod="reflect" />
    <linearGradient
       inkscape:collect="always"
       xlink:href="#linearGradient13033"
       id="linearGradient32"
       gradientUnits="userSpaceOnUse"
       gradientTransform="matrix(1,0,0,0.43548528,-665.0371,1787.7558)"
       x1="390.86761"
       y1="3601.5952"
       x2="390.86761"
       y2="2613.0981"
       spreadMethod="reflect" />
    <linearGradient
       inkscape:collect="always"
       xlink:href="#linearGradient13033"
       id="linearGradient33"
       gradientUnits="userSpaceOnUse"
       gradientTransform="matrix(1,0,0,0.43548528,-590.69298,1693.8552)"
       x1="390.86761"
       y1="3601.5952"
       x2="390.86761"
       y2="2613.0981"
       spreadMethod="reflect" />
    <linearGradient
       inkscape:collect="always"
       xlink:href="#linearGradient13033"
       id="linearGradient34"
       gradientUnits="userSpaceOnUse"
       gradientTransform="matrix(1,0,0,0.43548528,-643.73673,1614.956)"
       x1="390.86761"
       y1="3601.5952"
       x2="390.86761"
       y2="2613.0981"
       spreadMethod="reflect" />
    <linearGradient
       inkscape:collect="always"
       xlink:href="#linearGradient13033"
       id="linearGradient35"
       gradientUnits="userSpaceOnUse"
       gradientTransform="matrix(1,0,0,0.43548528,-515.13154,1787.7558)"
       x1="390.86761"
       y1="3601.5952"
       x2="390.86761"
       y2="2613.0981"
       spreadMethod="reflect" />
    <linearGradient
       inkscape:collect="always"
       xlink:href="#linearGradient13033"
       id="linearGradient36"
       gradientUnits="userSpaceOnUse"
       gradientTransform="matrix(1,0,0,0.43548528,-484.60553,1614.956)"
       x1="390.86761"
       y1="3601.5952"
       x2="390.86761"
       y2="2613.0981"
       spreadMethod="reflect" />
    <linearGradient
       inkscape:collect="always"
       xlink:href="#linearGradient13033"
       id="linearGradient37"
       gradientUnits="userSpaceOnUse"
       gradientTransform="matrix(1,0,0,0.43548528,-1247.6945,1712.7078)"
       x1="390.86761"
       y1="3601.5952"
       x2="390.86761"
       y2="2613.0981"
       spreadMethod="reflect" />
    <linearGradient
       inkscape:collect="always"
       xlink:href="#linearGradient13033"
       id="linearGradient38"
       gradientUnits="userSpaceOnUse"
       gradientTransform="matrix(1,0,0,0.43548528,-1194.6508,1591.694)"
       x1="390.86761"
       y1="3601.5952"
       x2="390.86761"
       y2="2613.0981"
       spreadMethod="reflect" />
    <linearGradient
       inkscape:collect="always"
       xlink:href="#linearGradient13033"
       id="linearGradient39"
       gradientUnits="userSpaceOnUse"
       gradientTransform="matrix(1,0,0,0.43548528,-1167.5098,1692.5896)"
       x1="390.86761"
       y1="3601.5952"
       x2="390.86761"
       y2="2613.0981"
       spreadMethod="reflect" />
    <linearGradient
       inkscape:collect="always"
       xlink:href="#linearGradient13033"
       id="linearGradient40"
       gradientUnits="userSpaceOnUse"
       gradientTransform="matrix(1,0,0,0.43548528,-1120.3066,1698.8457)"
       x1="390.86761"
       y1="3601.5952"
       x2="390.86761"
       y2="2613.0981"
       spreadMethod="reflect" />
    <linearGradient
       inkscape:collect="always"
       xlink:href="#linearGradient13033"
       id="linearGradient41"
       gradientUnits="userSpaceOnUse"
       gradientTransform="matrix(1,0,0,0.43548528,-1067.2629,1755.4839)"
       x1="390.86761"
       y1="3601.5952"
       x2="390.86761"
       y2="2613.0981"
       spreadMethod="reflect" />
    <linearGradient
       inkscape:collect="always"
       xlink:href="#linearGradient13033"
       id="linearGradient42"
       gradientUnits="userSpaceOnUse"
       gradientTransform="matrix(1,0,0,0.43548528,-992.91878,1661.5833)"
       x1="390.86761"
       y1="3601.5952"
       x2="390.86761"
       y2="2613.0981"
       spreadMethod="reflect" />
    <linearGradient
       inkscape:collect="always"
       xlink:href="#linearGradient13033"
       id="linearGradient43"
       gradientUnits="userSpaceOnUse"
       gradientTransform="matrix(1,0,0,0.43548528,-1045.9625,1582.6841)"
       x1="390.86761"
       y1="3601.5952"
       x2="390.86761"
       y2="2613.0981"
       spreadMethod="reflect" />
    <linearGradient
       inkscape:collect="always"
       xlink:href="#linearGradient13033"
       id="linearGradient44"
       gradientUnits="userSpaceOnUse"
       gradientTransform="matrix(1,0,0,0.43548528,-917.35734,1755.4839)"
       x1="390.86761"
       y1="3601.5952"
       x2="390.86761"
       y2="2613.0981"
       spreadMethod="reflect" />
    <linearGradient
       inkscape:collect="always"
       xlink:href="#linearGradient13033"
       id="linearGradient45"
       gradientUnits="userSpaceOnUse"
       gradientTransform="matrix(1,0,0,0.43548528,-886.83133,1582.6841)"
       x1="390.86761"
       y1="3601.5952"
       x2="390.86761"
       y2="2613.0981"
       spreadMethod="reflect" />
    <linearGradient
       inkscape:collect="always"
       xlink:href="#linearGradient13033"
       id="linearGradient46"
       gradientUnits="userSpaceOnUse"
       gradientTransform="matrix(1,0,0,0.43548528,-463.30519,1712.7078)"
       x1="390.86761"
       y1="3601.5952"
       x2="390.86761"
       y2="2613.0981"
       spreadMethod="reflect" />
    <linearGradient
       inkscape:collect="always"
       xlink:href="#linearGradient13033"
       id="linearGradient47"
       gradientUnits="userSpaceOnUse"
       gradientTransform="matrix(1,0,0,0.43548528,-410.26149,1591.694)"
       x1="390.86761"
       y1="3601.5952"
       x2="390.86761"
       y2="2613.0981"
       spreadMethod="reflect" />
    <linearGradient
       inkscape:collect="always"
       xlink:href="#linearGradient13033"
       id="linearGradient48"
       gradientUnits="userSpaceOnUse"
       gradientTransform="matrix(1,0,0,0.43548528,-383.12049,1692.5896)"
       x1="390.86761"
       y1="3601.5952"
       x2="390.86761"
       y2="2613.0981"
       spreadMethod="reflect" />
    <linearGradient
       inkscape:collect="always"
       xlink:href="#linearGradient13033"
       id="linearGradient49"
       gradientUnits="userSpaceOnUse"
       gradientTransform="matrix(1,0,0,0.43548528,-335.91729,1698.8457)"
       x1="390.86761"
       y1="3601.5952"
       x2="390.86761"
       y2="2613.0981"
       spreadMethod="reflect" />
    <linearGradient
       inkscape:collect="always"
       xlink:href="#linearGradient13033"
       id="linearGradient50"
       gradientUnits="userSpaceOnUse"
       gradientTransform="matrix(1,0,0,0.43548528,-282.87359,1755.4839)"
       x1="390.86761"
       y1="3601.5952"
       x2="390.86761"
       y2="2613.0981"
       spreadMethod="reflect" />
    <linearGradient
       inkscape:collect="always"
       xlink:href="#linearGradient13033"
       id="linearGradient51"
       gradientUnits="userSpaceOnUse"
       gradientTransform="matrix(1,0,0,0.43548528,-208.52947,1661.5833)"
       x1="390.86761"
       y1="3601.5952"
       x2="390.86761"
       y2="2613.0981"
       spreadMethod="reflect" />
    <linearGradient
       inkscape:collect="always"
       xlink:href="#linearGradient13033"
       id="linearGradient52"
       gradientUnits="userSpaceOnUse"
       gradientTransform="matrix(1,0,0,0.43548528,-261.57319,1582.6841)"
       x1="390.86761"
       y1="3601.5952"
       x2="390.86761"
       y2="2613.0981"
       spreadMethod="reflect" />
    <linearGradient
       inkscape:collect="always"
       xlink:href="#linearGradient13033"
       id="linearGradient53"
       gradientUnits="userSpaceOnUse"
       gradientTransform="matrix(1,0,0,0.43548528,-132.96803,1755.4839)"
       x1="390.86761"
       y1="3601.5952"
       x2="390.86761"
       y2="2613.0981"
       spreadMethod="reflect" />
    <linearGradient
       inkscape:collect="always"
       xlink:href="#linearGradient13033"
       id="linearGradient54"
       gradientUnits="userSpaceOnUse"
       gradientTransform="matrix(1,0,0,0.43548528,-102.44202,1582.6841)"
       x1="390.86761"
       y1="3601.5952"
       x2="390.86761"
       y2="2613.0981"
       spreadMethod="reflect" />
    <linearGradient
       inkscape:collect="always"
       xlink:href="#linearGradient13033"
       id="linearGradient55"
       gradientUnits="userSpaceOnUse"
       gradientTransform="matrix(1,0,0,0.43548528,-845.4687,1744.9797)"
       x1="390.86761"
       y1="3601.5952"
       x2="390.86761"
       y2="2613.0981"
       spreadMethod="reflect" />
    <linearGradient
       inkscape:collect="always"
       xlink:href="#linearGradient13033"
       id="linearGradient56"
       gradientUnits="userSpaceOnUse"
       gradientTransform="matrix(1,0,0,0.43548528,-792.42496,1623.9659)"
       x1="390.86761"
       y1="3601.5952"
       x2="390.86761"
       y2="2613.0981"
       spreadMethod="reflect" />
    <linearGradient
       inkscape:collect="always"
       xlink:href="#linearGradient13033"
       id="linearGradient57"
       gradientUnits="userSpaceOnUse"
       gradientTransform="matrix(1,0,0,0.43548528,-765.28403,1724.8615)"
       x1="390.86761"
       y1="3601.5952"
       x2="390.86761"
       y2="2613.0981"
       spreadMethod="reflect" />
    <linearGradient
       inkscape:collect="always"
       xlink:href="#linearGradient13033"
       id="linearGradient58"
       gradientUnits="userSpaceOnUse"
       gradientTransform="matrix(1,0,0,0.43548528,-718.08084,1731.1176)"
       x1="390.86761"
       y1="3601.5952"
       x2="390.86761"
       y2="2613.0981"
       spreadMethod="reflect" />
    <linearGradient
       inkscape:collect="always"
       xlink:href="#linearGradient13033"
       id="linearGradient59"
       gradientUnits="userSpaceOnUse"
       gradientTransform="matrix(1,0,0,0.43548528,-665.0371,1787.7558)"
       x1="390.86761"
       y1="3601.5952"
       x2="390.86761"
       y2="2613.0981"
       spreadMethod="reflect" />
    <linearGradient
       inkscape:collect="always"
       xlink:href="#linearGradient13033"
       id="linearGradient60"
       gradientUnits="userSpaceOnUse"
       gradientTransform="matrix(1,0,0,0.43548528,-590.69298,1693.8552)"
       x1="390.86761"
       y1="3601.5952"
       x2="390.86761"
       y2="2613.0981"
       spreadMethod="reflect" />
    <linearGradient
       inkscape:collect="always"
       xlink:href="#linearGradient13033"
       id="linearGradient61"
       gradientUnits="userSpaceOnUse"
       gradientTransform="matrix(1,0,0,0.43548528,-643.73673,1614.956)"
       x1="390.86761"
       y1="3601.5952"
       x2="390.86761"
       y2="2613.0981"
       spreadMethod="reflect" />
    <linearGradient
       inkscape:collect="always"
       xlink:href="#linearGradient13033"
       id="linearGradient62"
       gradientUnits="userSpaceOnUse"
       gradientTransform="matrix(1,0,0,0.43548528,-515.13154,1787.7558)"
       x1="390.86761"
       y1="3601.5952"
       x2="390.86761"
       y2="2613.0981"
       spreadMethod="reflect" />
    <linearGradient
       inkscape:collect="always"
       xlink:href="#linearGradient13033"
       id="linearGradient63"
       gradientUnits="userSpaceOnUse"
       gradientTransform="matrix(1,0,0,0.43548528,-484.60553,1614.956)"
       x1="390.86761"
       y1="3601.5952"
       x2="390.86761"
       y2="2613.0981"
       spreadMethod="reflect" />
    <linearGradient
       inkscape:collect="always"
       xlink:href="#linearGradient13033"
       id="linearGradient64"
       gradientUnits="userSpaceOnUse"
       gradientTransform="matrix(1,0,0,0.43548528,-1247.6945,1712.7078)"
       x1="390.86761"
       y1="3601.5952"
       x2="390.86761"
       y2="2613.0981"
       spreadMethod="reflect" />
    <linearGradient
       inkscape:collect="always"
       xlink:href="#linearGradient13033"
       id="linearGradient65"
       gradientUnits="userSpaceOnUse"
       gradientTransform="matrix(1,0,0,0.43548528,-1194.6508,1591.694)"
       x1="390.86761"
       y1="3601.5952"
       x2="390.86761"
       y2="2613.0981"
       spreadMethod="reflect" />
    <linearGradient
       inkscape:collect="always"
       xlink:href="#linearGradient13033"
       id="linearGradient66"
       gradientUnits="userSpaceOnUse"
       gradientTransform="matrix(1,0,0,0.43548528,-1167.5098,1692.5896)"
       x1="390.86761"
       y1="3601.5952"
       x2="390.86761"
       y2="2613.0981"
       spreadMethod="reflect" />
    <linearGradient
       inkscape:collect="always"
       xlink:href="#linearGradient13033"
       id="linearGradient67"
       gradientUnits="userSpaceOnUse"
       gradientTransform="matrix(1,0,0,0.43548528,-1120.3066,1698.8457)"
       x1="390.86761"
       y1="3601.5952"
       x2="390.86761"
       y2="2613.0981"
       spreadMethod="reflect" />
    <linearGradient
       inkscape:collect="always"
       xlink:href="#linearGradient13033"
       id="linearGradient68"
       gradientUnits="userSpaceOnUse"
       gradientTransform="matrix(1,0,0,0.43548528,-1067.2629,1755.4839)"
       x1="390.86761"
       y1="3601.5952"
       x2="390.86761"
       y2="2613.0981"
       spreadMethod="reflect" />
    <linearGradient
       inkscape:collect="always"
       xlink:href="#linearGradient13033"
       id="linearGradient69"
       gradientUnits="userSpaceOnUse"
       gradientTransform="matrix(1,0,0,0.43548528,-992.91878,1661.5833)"
       x1="390.86761"
       y1="3601.5952"
       x2="390.86761"
       y2="2613.0981"
       spreadMethod="reflect" />
    <linearGradient
       inkscape:collect="always"
       xlink:href="#linearGradient13033"
       id="linearGradient70"
       gradientUnits="userSpaceOnUse"
       gradientTransform="matrix(1,0,0,0.43548528,-1045.9625,1582.6841)"
       x1="390.86761"
       y1="3601.5952"
       x2="390.86761"
       y2="2613.0981"
       spreadMethod="reflect" />
    <linearGradient
       inkscape:collect="always"
       xlink:href="#linearGradient13033"
       id="linearGradient71"
       gradientUnits="userSpaceOnUse"
       gradientTransform="matrix(1,0,0,0.43548528,-917.35734,1755.4839)"
       x1="390.86761"
       y1="3601.5952"
       x2="390.86761"
       y2="2613.0981"
       spreadMethod="reflect" />
    <linearGradient
       inkscape:collect="always"
       xlink:href="#linearGradient13033"
       id="linearGradient72"
       gradientUnits="userSpaceOnUse"
       gradientTransform="matrix(1,0,0,0.43548528,-886.83133,1582.6841)"
       x1="390.86761"
       y1="3601.5952"
       x2="390.86761"
       y2="2613.0981"
       spreadMethod="reflect" />
    <linearGradient
       inkscape:collect="always"
       xlink:href="#linearGradient13033"
       id="linearGradient73"
       gradientUnits="userSpaceOnUse"
       gradientTransform="matrix(1,0,0,0.43548528,-463.30519,1712.7078)"
       x1="390.86761"
       y1="3601.5952"
       x2="390.86761"
       y2="2613.0981"
       spreadMethod="reflect" />
    <linearGradient
       inkscape:collect="always"
       xlink:href="#linearGradient13033"
       id="linearGradient74"
       gradientUnits="userSpaceOnUse"
       gradientTransform="matrix(1,0,0,0.43548528,-410.26149,1591.694)"
       x1="390.86761"
       y1="3601.5952"
       x2="390.86761"
       y2="2613.0981"
       spreadMethod="reflect" />
    <linearGradient
       inkscape:collect="always"
       xlink:href="#linearGradient13033"
       id="linearGradient75"
       gradientUnits="userSpaceOnUse"
       gradientTransform="matrix(1,0,0,0.43548528,-383.12049,1692.5896)"
       x1="390.86761"
       y1="3601.5952"
       x2="390.86761"
       y2="2613.0981"
       spreadMethod="reflect" />
    <linearGradient
       inkscape:collect="always"
       xlink:href="#linearGradient13033"
       id="linearGradient76"
       gradientUnits="userSpaceOnUse"
       gradientTransform="matrix(1,0,0,0.43548528,-335.91729,1698.8457)"
       x1="390.86761"
       y1="3601.5952"
       x2="390.86761"
       y2="2613.0981"
       spreadMethod="reflect" />
    <linearGradient
       inkscape:collect="always"
       xlink:href="#linearGradient13033"
       id="linearGradient77"
       gradientUnits="userSpaceOnUse"
       gradientTransform="matrix(1,0,0,0.43548528,-282.87359,1755.4839)"
       x1="390.86761"
       y1="3601.5952"
       x2="390.86761"
       y2="2613.0981"
       spreadMethod="reflect" />
    <linearGradient
       inkscape:collect="always"
       xlink:href="#linearGradient13033"
       id="linearGradient78"
       gradientUnits="userSpaceOnUse"
       gradientTransform="matrix(1,0,0,0.43548528,-208.52947,1661.5833)"
       x1="390.86761"
       y1="3601.5952"
       x2="390.86761"
       y2="2613.0981"
       spreadMethod="reflect" />
    <linearGradient
       inkscape:collect="always"
       xlink:href="#linearGradient13033"
       id="linearGradient79"
       gradientUnits="userSpaceOnUse"
       gradientTransform="matrix(1,0,0,0.43548528,-261.57319,1582.6841)"
       x1="390.86761"
       y1="3601.5952"
       x2="390.86761"
       y2="2613.0981"
       spreadMethod="reflect" />
    <linearGradient
       inkscape:collect="always"
       xlink:href="#linearGradient13033"
       id="linearGradient80"
       gradientUnits="userSpaceOnUse"
       gradientTransform="matrix(1,0,0,0.43548528,-132.96803,1755.4839)"
       x1="390.86761"
       y1="3601.5952"
       x2="390.86761"
       y2="2613.0981"
       spreadMethod="reflect" />
    <linearGradient
       inkscape:collect="always"
       xlink:href="#linearGradient13033"
       id="linearGradient81"
       gradientUnits="userSpaceOnUse"
       gradientTransform="matrix(1,0,0,0.43548528,-102.44202,1582.6841)"
       x1="390.86761"
       y1="3601.5952"
       x2="390.86761"
       y2="2613.0981"
       spreadMethod="reflect" />
  </defs>
  <g
     inkscape:label="Layer 1"
     inkscape:groupmode="layer"
     id="layer1">
    <rect
       style="fill:#68c460;fill-opacity:1;stroke:none;stroke-width:0.675542;stroke-opacity:1"
       id="rect13399"
       width="529.16669"
       height="529.16669"
       x="-3.2011718e-05"
       y="5.4210109e-20"
       inkscape:export-filename="rect13267c.png"
       inkscape:export-xdpi="96"
       inkscape:export-ydpi="96" />
    <g
       id="g13614"
       transform="matrix(0.9346658,-0.43570541,0.43570541,0.9346658,-4939.5665,-12425.514)">
      <g
         id="g13454"
         transform="matrix(0.39174726,0,0,0.39174726,-390.0822,9045.9409)">
        <g
           id="g13426"
           transform="matrix(0.8857562,0.90119929,-1.0452528,1.0273411,2519.4636,7216.8246)"
           style="filter:url(#filter13107)">
          <rect
             style="opacity:0.756222;fill:url(#linearGradient1);fill-opacity:1;stroke:none;stroke-width:1.18286;stroke-opacity:1"
             id="rect13400"
             width="106.08748"
             height="860.95178"
             x="-507.64484"
             y="2882.9453" />
          <rect
             style="opacity:0.756222;fill:url(#linearGradient2);fill-opacity:1;stroke:none;stroke-width:1.18286;stroke-opacity:1"
             id="rect13401"
             width="106.08748"
             height="860.95178"
             x="-454.6011"
             y="2761.9314" />
          <rect
             style="opacity:0.756222;fill:url(#linearGradient3);fill-opacity:1;stroke:none;stroke-width:1.18286;stroke-opacity:1"
             id="rect13402"
             width="106.08748"
             height="860.95178"
             x="-427.46017"
             y="2862.8269" />
          <rect
             style="opacity:0.756222;fill:url(#linearGradient4);fill-opacity:1;stroke:none;stroke-width:1.18286;stroke-opacity:1"
             id="rect13403"
             width="106.08748"
             height="860.95178"
             x="-380.25699"
             y="2869.083" />
          <rect
             style="opacity:0.756222;fill:url(#linearGradient5);fill-opacity:1;stroke:none;stroke-width:1.18286;stroke-opacity:1"
             id="rect13404"
             width="106.08748"
             height="860.95178"
             x="-327.21326"
             y="2925.7212" />
          <rect
             style="opacity:0.756222;fill:url(#linearGradient6);fill-opacity:1;stroke:none;stroke-width:1.18286;stroke-opacity:1"
             id="rect13405"
             width="106.08748"
             height="860.95178"
             x="-252.86914"
             y="2831.8206" />
          <rect
             style="opacity:0.756222;fill:url(#linearGradient7);fill-opacity:1;stroke:none;stroke-width:1.18286;stroke-opacity:1"
             id="rect13406"
             width="106.08748"
             height="860.95178"
             x="-305.91287"
             y="2752.9214" />
          <rect
             style="opacity:0.756222;fill:url(#linearGradient8);fill-opacity:1;stroke:none;stroke-width:1.18286;stroke-opacity:1"
             id="rect13407"
             width="106.08748"
             height="860.95178"
             x="-177.30768"
             y="2925.7212" />
          <rect
             style="opacity:0.756222;fill:url(#linearGradient9);fill-opacity:1;stroke:none;stroke-width:1.18286;stroke-opacity:1"
             id="rect13408"
             width="106.08748"
             height="860.95178"
             x="-146.78168"
             y="2752.9214" />
          <rect
             style="opacity:0.756222;fill:url(#linearGradient10);fill-opacity:1;stroke:none;stroke-width:1.18286;stroke-opacity:1"
             id="rect13409"
             width="106.08748"
             height="860.95178"
             x="-909.87061"
             y="2850.6733" />
          <rect
             style="opacity:0.756222;fill:url(#linearGradient11);fill-opacity:1;stroke:none;stroke-width:1.18286;stroke-opacity:1"
             id="rect13410"
             width="106.08748"
             height="860.95178"
             x="-856.8269"
             y="2729.6594" />
          <rect
             style="opacity:0.756222;fill:url(#linearGradient12);fill-opacity:1;stroke:none;stroke-width:1.18286;stroke-opacity:1"
             id="rect13411"
             width="106.08748"
             height="860.95178"
             x="-829.68597"
             y="2830.5549" />
          <rect
             style="opacity:0.756222;fill:url(#linearGradient13);fill-opacity:1;stroke:none;stroke-width:1.18286;stroke-opacity:1"
             id="rect13412"
             width="106.08748"
             height="860.95178"
             x="-782.48279"
             y="2836.811" />
          <rect
             style="opacity:0.756222;fill:url(#linearGradient14);fill-opacity:1;stroke:none;stroke-width:1.18286;stroke-opacity:1"
             id="rect13413"
             width="106.08748"
             height="860.95178"
             x="-729.43909"
             y="2893.4492" />
          <rect
             style="opacity:0.756222;fill:url(#linearGradient15);fill-opacity:1;stroke:none;stroke-width:1.18286;stroke-opacity:1"
             id="rect13414"
             width="106.08748"
             height="860.95178"
             x="-655.09497"
             y="2799.5486" />
          <rect
             style="opacity:0.756222;fill:url(#linearGradient16);fill-opacity:1;stroke:none;stroke-width:1.18286;stroke-opacity:1"
             id="rect13415"
             width="106.08748"
             height="860.95178"
             x="-708.13867"
             y="2720.6494" />
          <rect
             style="opacity:0.756222;fill:url(#linearGradient17);fill-opacity:1;stroke:none;stroke-width:1.18286;stroke-opacity:1"
             id="rect13416"
             width="106.08748"
             height="860.95178"
             x="-579.53345"
             y="2893.4492" />
          <rect
             style="opacity:0.756222;fill:url(#linearGradient18);fill-opacity:1;stroke:none;stroke-width:1.18286;stroke-opacity:1"
             id="rect13417"
             width="106.08748"
             height="860.95178"
             x="-549.00745"
             y="2720.6494" />
          <rect
             style="opacity:0.756222;fill:url(#linearGradient19);fill-opacity:1;stroke:none;stroke-width:1.18286;stroke-opacity:1"
             id="rect13418"
             width="106.08748"
             height="860.95178"
             x="-125.48129"
             y="2850.6733" />
          <rect
             style="opacity:0.756222;fill:url(#linearGradient20);fill-opacity:1;stroke:none;stroke-width:1.18286;stroke-opacity:1"
             id="rect13419"
             width="106.08748"
             height="860.95178"
             x="-72.437592"
             y="2729.6594" />
          <rect
             style="opacity:0.756222;fill:url(#linearGradient21);fill-opacity:1;stroke:none;stroke-width:1.18286;stroke-opacity:1"
             id="rect13420"
             width="106.08748"
             height="860.95178"
             x="-45.296661"
             y="2830.5549" />
          <rect
             style="opacity:0.756222;fill:url(#linearGradient22);fill-opacity:1;stroke:none;stroke-width:1.18286;stroke-opacity:1"
             id="rect13421"
             width="106.08748"
             height="860.95178"
             x="1.9065247"
             y="2836.811" />
          <rect
             style="opacity:0.756222;fill:url(#linearGradient23);fill-opacity:1;stroke:none;stroke-width:1.18286;stroke-opacity:1"
             id="rect13422"
             width="106.08748"
             height="860.95178"
             x="54.950226"
             y="2893.4492" />
          <rect
             style="opacity:0.756222;fill:url(#linearGradient24);fill-opacity:1;stroke:none;stroke-width:1.18286;stroke-opacity:1"
             id="rect13423"
             width="106.08748"
             height="860.95178"
             x="129.29434"
             y="2799.5486" />
          <rect
             style="opacity:0.756222;fill:url(#linearGradient25);fill-opacity:1;stroke:none;stroke-width:1.18286;stroke-opacity:1"
             id="rect13424"
             width="106.08748"
             height="860.95178"
             x="76.250641"
             y="2720.6494" />
          <rect
             style="opacity:0.756222;fill:url(#linearGradient26);fill-opacity:1;stroke:none;stroke-width:1.18286;stroke-opacity:1"
             id="rect13425"
             width="106.08748"
             height="860.95178"
             x="204.85587"
             y="2893.4492" />
          <rect
             style="opacity:0.756222;fill:url(#linearGradient27);fill-opacity:1;stroke:none;stroke-width:1.18286;stroke-opacity:1"
             id="rect13426"
             width="106.08748"
             height="860.95178"
             x="235.38187"
             y="2720.6494" />
        </g>
        <g
           id="g13453"
           transform="matrix(0.8857562,0.90119929,-1.0452528,1.0273411,2519.4636,7216.8246)"
           style="filter:url(#filter13373)">
          <rect
             style="opacity:0.756222;fill:url(#linearGradient28);fill-opacity:1;stroke:none;stroke-width:1.18286;stroke-opacity:1"
             id="rect13427"
             width="106.08748"
             height="860.95178"
             x="-507.64484"
             y="2882.9453" />
          <rect
             style="opacity:0.756222;fill:url(#linearGradient29);fill-opacity:1;stroke:none;stroke-width:1.18286;stroke-opacity:1"
             id="rect13428"
             width="106.08748"
             height="860.95178"
             x="-454.6011"
             y="2761.9314" />
          <rect
             style="opacity:0.756222;fill:url(#linearGradient30);fill-opacity:1;stroke:none;stroke-width:1.18286;stroke-opacity:1"
             id="rect13429"
             width="106.08748"
             height="860.95178"
             x="-427.46017"
             y="2862.8269" />
          <rect
             style="opacity:0.756222;fill:url(#linearGradient31);fill-opacity:1;stroke:none;stroke-width:1.18286;stroke-opacity:1"
             id="rect13430"
             width="106.08748"
             height="860.95178"
             x="-380.25699"
             y="2869.083" />
          <rect
             style="opacity:0.756222;fill:url(#linearGradient32);fill-opacity:1;stroke:none;stroke-width:1.18286;stroke-opacity:1"
             id="rect13431"
             width="106.08748"
             height="860.95178"
             x="-327.21326"
             y="2925.7212" />
          <rect
             style="opacity:0.756222;fill:url(#linearGradient33);fill-opacity:1;stroke:none;stroke-width:1.18286;stroke-opacity:1"
             id="rect13432"
             width="106.08748"
             height="860.95178"
             x="-252.86914"
             y="2831.8206" />
          <rect
             style="opacity:0.756222;fill:url(#linearGradient34);fill-opacity:1;stroke:none;stroke-width:1.18286;stroke-opacity:1"
             id="rect13433"
             width="106.08748"
             height="860.95178"
             x="-305.91287"
             y="2752.9214" />
          <rect
             style="opacity:0.756222;fill:url(#linearGradient35);fill-opacity:1;stroke:none;stroke-width:1.18286;stroke-opacity:1"
             id="rect13434"
             width="106.08748"
             height="860.95178"
             x="-177.30768"
             y="2925.7212" />
          <rect
             style="opacity:0.756222;fill:url(#linearGradient36);fill-opacity:1;stroke:none;stroke-width:1.18286;stroke-opacity:1"
             id="rect13435"
             width="106.08748"
             height="860.95178"
             x="-146.78168"
             y="2752.9214" />
          <rect
             style="opacity:0.756222;fill:url(#linearGradient37);fill-opacity:1;stroke:none;stroke-width:1.18286;stroke-opacity:1"
             id="rect13436"
             width="106.08748"
             height="860.95178"
             x="-909.87061"
             y="2850.6733" />
          <rect
             style="opacity:0.756222;fill:url(#linearGradient38);fill-opacity:1;stroke:none;stroke-width:1.18286;stroke-opacity:1"
             id="rect13437"
             width="106.08748"
             height="860.95178"
             x="-856.8269"
             y="2729.6594" />
          <rect
             style="opacity:0.756222;fill:url(#linearGradient39);fill-opacity:1;stroke:none;stroke-width:1.18286;stroke-opacity:1"
             id="rect13438"
             width="106.08748"
             height="860.95178"
             x="-829.68597"
             y="2830.5549" />
          <rect
             style="opacity:0.756222;fill:url(#linearGradient40);fill-opacity:1;stroke:none;stroke-width:1.18286;stroke-opacity:1"
             id="rect13439"
             width="106.08748"
             height="860.95178"
             x="-782.48279"
             y="2836.811" />
          <rect
             style="opacity:0.756222;fill:url(#linearGradient41);fill-opacity:1;stroke:none;stroke-width:1.18286;stroke-opacity:1"
             id="rect13440"
             width="106.08748"
             height="860.95178"
             x="-729.43909"
             y="2893.4492" />
          <rect
             style="opacity:0.756222;fill:url(#linearGradient42);fill-opacity:1;stroke:none;stroke-width:1.18286;stroke-opacity:1"
             id="rect13441"
             width="106.08748"
             height="860.95178"
             x="-655.09497"
             y="2799.5486" />
          <rect
             style="opacity:0.756222;fill:url(#linearGradient43);fill-opacity:1;stroke:none;stroke-width:1.18286;stroke-opacity:1"
             id="rect13442"
             width="106.08748"
             height="860.95178"
             x="-708.13867"
             y="2720.6494" />
          <rect
             style="opacity:0.756222;fill:url(#linearGradient44);fill-opacity:1;stroke:none;stroke-width:1.18286;stroke-opacity:1"
             id="rect13443"
             width="106.08748"
             height="860.95178"
             x="-579.53345"
             y="2893.4492" />
          <rect
             style="opacity:0.756222;fill:url(#linearGradient45);fill-opacity:1;stroke:none;stroke-width:1.18286;stroke-opacity:1"
             id="rect13444"
             width="106.08748"
             height="860.95178"
             x="-549.00745"
             y="2720.6494" />
          <rect
             style="opacity:0.756222;fill:url(#linearGradient46);fill-opacity:1;stroke:none;stroke-width:1.18286;stroke-opacity:1"
             id="rect13445"
             width="106.08748"
             height="860.95178"
             x="-125.48129"
             y="2850.6733" />
          <rect
             style="opacity:0.756222;fill:url(#linearGradient47);fill-opacity:1;stroke:none;stroke-width:1.18286;stroke-opacity:1"
             id="rect13446"
             width="106.08748"
             height="860.95178"
             x="-72.437592"
             y="2729.6594" />
          <rect
             style="opacity:0.756222;fill:url(#linearGradient48);fill-opacity:1;stroke:none;stroke-width:1.18286;stroke-opacity:1"
             id="rect13447"
             width="106.08748"
             height="860.95178"
             x="-45.296661"
             y="2830.5549" />
          <rect
             style="opacity:0.756222;fill:url(#linearGradient49);fill-opacity:1;stroke:none;stroke-width:1.18286;stroke-opacity:1"
             id="rect13448"
             width="106.08748"
             height="860.95178"
             x="1.9065247"
             y="2836.811" />
          <rect
             style="opacity:0.756222;fill:url(#linearGradient50);fill-opacity:1;stroke:none;stroke-width:1.18286;stroke-opacity:1"
             id="rect13449"
             width="106.08748"
             height="860.95178"
             x="54.950226"
             y="2893.4492" />
          <rect
             style="opacity:0.756222;fill:url(#linearGradient51);fill-opacity:1;stroke:none;stroke-width:1.18286;stroke-opacity:1"
             id="rect13450"
             width="106.08748"
             height="860.95178"
             x="129.29434"
             y="2799.5486" />
          <rect
             style="opacity:0.756222;fill:url(#linearGradient52);fill-opacity:1;stroke:none;stroke-width:1.18286;stroke-opacity:1"
             id="rect13451"
             width="106.08748"
             height="860.95178"
             x="76.250641"
             y="2720.6494" />
          <rect
             style="opacity:0.756222;fill:url(#linearGradient53);fill-opacity:1;stroke:none;stroke-width:1.18286;stroke-opacity:1"
             id="rect13452"
             width="106.08748"
             height="860.95178"
             x="204.85587"
             y="2893.4492" />
          <rect
             style="opacity:0.756222;fill:url(#linearGradient54);fill-opacity:1;stroke:none;stroke-width:1.18286;stroke-opacity:1"
             id="rect13453"
             width="106.08748"
             height="860.95178"
             x="235.38187"
             y="2720.6494" />
        </g>
      </g>
      <g
         id="g13561"
         transform="matrix(0.39174726,0,0,0.39174726,-9.9417538,9435.4133)">
        <g
           id="g13533"
           transform="matrix(0.8857562,0.90119929,-1.0452528,1.0273411,2519.4636,7216.8246)"
           style="filter:url(#filter13107)">
          <rect
             style="opacity:0.756222;fill:url(#linearGradient55);fill-opacity:1;stroke:none;stroke-width:1.18286;stroke-opacity:1"
             id="rect13507"
             width="106.08748"
             height="860.95178"
             x="-507.64484"
             y="2882.9453" />
          <rect
             style="opacity:0.756222;fill:url(#linearGradient56);fill-opacity:1;stroke:none;stroke-width:1.18286;stroke-opacity:1"
             id="rect13508"
             width="106.08748"
             height="860.95178"
             x="-454.6011"
             y="2761.9314" />
          <rect
             style="opacity:0.756222;fill:url(#linearGradient57);fill-opacity:1;stroke:none;stroke-width:1.18286;stroke-opacity:1"
             id="rect13509"
             width="106.08748"
             height="860.95178"
             x="-427.46017"
             y="2862.8269" />
          <rect
             style="opacity:0.756222;fill:url(#linearGradient58);fill-opacity:1;stroke:none;stroke-width:1.18286;stroke-opacity:1"
             id="rect13510"
             width="106.08748"
             height="860.95178"
             x="-380.25699"
             y="2869.083" />
          <rect
             style="opacity:0.756222;fill:url(#linearGradient59);fill-opacity:1;stroke:none;stroke-width:1.18286;stroke-opacity:1"
             id="rect13511"
             width="106.08748"
             height="860.95178"
             x="-327.21326"
             y="2925.7212" />
          <rect
             style="opacity:0.756222;fill:url(#linearGradient60);fill-opacity:1;stroke:none;stroke-width:1.18286;stroke-opacity:1"
             id="rect13512"
             width="106.08748"
             height="860.95178"
             x="-252.86914"
             y="2831.8206" />
          <rect
             style="opacity:0.756222;fill:url(#linearGradient61);fill-opacity:1;stroke:none;stroke-width:1.18286;stroke-opacity:1"
             id="rect13513"
             width="106.08748"
             height="860.95178"
             x="-305.91287"
             y="2752.9214" />
          <rect
             style="opacity:0.756222;fill:url(#linearGradient62);fill-opacity:1;stroke:none;stroke-width:1.18286;stroke-opacity:1"
             id="rect13514"
             width="106.08748"
             height="860.95178"
             x="-177.30768"
             y="2925.7212" />
          <rect
             style="opacity:0.756222;fill:url(#linearGradient63);fill-opacity:1;stroke:none;stroke-width:1.18286;stroke-opacity:1"
             id="rect13515"
             width="106.08748"
             height="860.95178"
             x="-146.78168"
             y="2752.9214" />
          <rect
             style="opacity:0.756222;fill:url(#linearGradient64);fill-opacity:1;stroke:none;stroke-width:1.18286;stroke-opacity:1"
             id="rect13516"
             width="106.08748"
             height="860.95178"
             x="-909.87061"
             y="2850.6733" />
          <rect
             style="opacity:0.756222;fill:url(#linearGradient65);fill-opacity:1;stroke:none;stroke-width:1.18286;stroke-opacity:1"
             id="rect13517"
             width="106.08748"
             height="860.95178"
             x="-856.8269"
             y="2729.6594" />
          <rect
             style="opacity:0.756222;fill:url(#linearGradient66);fill-opacity:1;stroke:none;stroke-width:1.18286;stroke-opacity:1"
             id="rect13518"
             width="106.08748"
             height="860.95178"
             x="-829.68597"
             y="2830.5549" />
          <rect
             style="opacity:0.756222;fill:url(#linearGradient67);fill-opacity:1;stroke:none;stroke-width:1.18286;stroke-opacity:1"
             id="rect13519"
             width="106.08748"
             height="860.95178"
             x="-782.48279"
             y="2836.811" />
          <rect
             style="opacity:0.756222;fill:url(#linearGradient68);fill-opacity:1;stroke:none;stroke-width:1.18286;stroke-opacity:1"
             id="rect13520"
             width="106.08748"
             height="860.95178"
             x="-729.43909"
             y="2893.4492" />
          <rect
             style="opacity:0.756222;fill:url(#linearGradient69);fill-opacity:1;stroke:none;stroke-width:1.18286;stroke-opacity:1"
             id="rect13521"
             width="106.08748"
             height="860.95178"
             x="-655.09497"
             y="2799.5486" />
          <rect
             style="opacity:0.756222;fill:url(#linearGradient70);fill-opacity:1;stroke:none;stroke-width:1.18286;stroke-opacity:1"
             id="rect13522"
             width="106.08748"
             height="860.95178"
             x="-708.13867"
             y="2720.6494" />
          <rect
             style="opacity:0.756222;fill:url(#linearGradient71);fill-opacity:1;stroke:none;stroke-width:1.18286;stroke-opacity:1"
             id="rect13523"
             width="106.08748"
             height="860.95178"
             x="-579.53345"
             y="2893.4492" />
          <rect
             style="opacity:0.756222;fill:url(#linearGradient72);fill-opacity:1;stroke:none;stroke-width:1.18286;stroke-opacity:1"
             id="rect13524"
             width="106.08748"
             height="860.95178"
             x="-549.00745"
             y="2720.6494" />
          <rect
             style="opacity:0.756222;fill:url(#linearGradient73);fill-opacity:1;stroke:none;stroke-width:1.18286;stroke-opacity:1"
             id="rect13525"
             width="106.08748"
             height="860.95178"
             x="-125.48129"
             y="2850.6733" />
          <rect
             style="opacity:0.756222;fill:url(#linearGradient74);fill-opacity:1;stroke:none;stroke-width:1.18286;stroke-opacity:1"
             id="rect13526"
             width="106.08748"
             height="860.95178"
             x="-72.437592"
             y="2729.6594" />
          <rect
             style="opacity:0.756222;fill:url(#linearGradient75);fill-opacity:1;stroke:none;stroke-width:1.18286;stroke-opacity:1"
             id="rect13527"
             width="106.08748"
             height="860.95178"
             x="-45.296661"
             y="2830.5549" />
          <rect
             style="opacity:0.756222;fill:url(#linearGradient76);fill-opacity:1;stroke:none;stroke-width:1.18286;stroke-opacity:1"
             id="rect13528"
             width="106.08748"
             height="860.95178"
             x="1.9065247"
             y="2836.811" />
          <rect
             style="opacity:0.756222;fill:url(#linearGradient77);fill-opacity:1;stroke:none;stroke-width:1.18286;stroke-opacity:1"
             id="rect13529"
             width="106.08748"
             height="860.95178"
             x="54.950226"
             y="2893.4492" />
          <rect
             style="opacity:0.756222;fill:url(#linearGradient78);fill-opacity:1;stroke:none;stroke-width:1.18286;stroke-opacity:1"
             id="rect13530"
             width="106.08748"
             height="860.95178"
             x="129.29434"
             y="2799.5486" />
          <rect
             style="opacity:0.756222;fill:url(#linearGradient79);fill-opacity:1;stroke:none;stroke-width:1.18286;stroke-opacity:1"
             id="rect13531"
             width="106.08748"
             height="860.95178"
             x="76.250641"
             y="2720.6494" />
          <rect
             style="opacity:0.756222;fill:url(#linearGradient80);fill-opacity:1;stroke:none;stroke-width:1.18286;stroke-opacity:1"
             id="rect13532"
             width="106.08748"
             height="860.95178"
             x="204.85587"
             y="2893.4492" />
          <rect
             style="opacity:0.756222;fill:url(#linearGradient81);fill-opacity:1;stroke:none;stroke-width:1.18286;stroke-opacity:1"
             id="rect13533"
             width="106.08748"
             height="860.95178"
             x="235.38187"
             y="2720.6494" />
        </g>
        <g
           id="g13560"
           transform="matrix(0.8857562,0.90119929,-1.0452528,1.0273411,2519.4636,7216.8246)"
           style="filter:url(#filter13373)">
          <rect
             style="opacity:0.756222;fill:url(#linearGradient13454);fill-opacity:1;stroke:none;stroke-width:1.18286;stroke-opacity:1"
             id="rect13534"
             width="106.08748"
             height="860.95178"
             x="-507.64484"
             y="2882.9453" />
          <rect
             style="opacity:0.756222;fill:url(#linearGradient13455);fill-opacity:1;stroke:none;stroke-width:1.18286;stroke-opacity:1"
             id="rect13535"
             width="106.08748"
             height="860.95178"
             x="-454.6011"
             y="2761.9314" />
          <rect
             style="opacity:0.756222;fill:url(#linearGradient13456);fill-opacity:1;stroke:none;stroke-width:1.18286;stroke-opacity:1"
             id="rect13536"
             width="106.08748"
             height="860.95178"
             x="-427.46017"
             y="2862.8269" />
          <rect
             style="opacity:0.756222;fill:url(#linearGradient13457);fill-opacity:1;stroke:none;stroke-width:1.18286;stroke-opacity:1"
             id="rect13537"
             width="106.08748"
             height="860.95178"
             x="-380.25699"
             y="2869.083" />
          <rect
             style="opacity:0.756222;fill:url(#linearGradient13458);fill-opacity:1;stroke:none;stroke-width:1.18286;stroke-opacity:1"
             id="rect13538"
             width="106.08748"
             height="860.95178"
             x="-327.21326"
             y="2925.7212" />
          <rect
             style="opacity:0.756222;fill:url(#linearGradient13459);fill-opacity:1;stroke:none;stroke-width:1.18286;stroke-opacity:1"
             id="rect13539"
             width="106.08748"
             height="860.95178"
             x="-252.86914"
             y="2831.8206" />
          <rect
             style="opacity:0.756222;fill:url(#linearGradient13460);fill-opacity:1;stroke:none;stroke-width:1.18286;stroke-opacity:1"
             id="rect13540"
             width="106.08748"
             height="860.95178"
             x="-305.91287"
             y="2752.9214" />
          <rect
             style="opacity:0.756222;fill:url(#linearGradient13461);fill-opacity:1;stroke:none;stroke-width:1.18286;stroke-opacity:1"
             id="rect13541"
             width="106.08748"
             height="860.95178"
             x="-177.30768"
             y="2925.7212" />
          <rect
             style="opacity:0.756222;fill:url(#linearGradient13462);fill-opacity:1;stroke:none;stroke-width:1.18286;stroke-opacity:1"
             id="rect13542"
             width="106.08748"
             height="860.95178"
             x="-146.78168"
             y="2752.9214" />
          <rect
             style="opacity:0.756222;fill:url(#linearGradient13463);fill-opacity:1;stroke:none;stroke-width:1.18286;stroke-opacity:1"
             id="rect13543"
             width="106.08748"
             height="860.95178"
             x="-909.87061"
             y="2850.6733" />
          <rect
             style="opacity:0.756222;fill:url(#linearGradient13464);fill-opacity:1;stroke:none;stroke-width:1.18286;stroke-opacity:1"
             id="rect13544"
             width="106.08748"
             height="860.95178"
             x="-856.8269"
             y="2729.6594" />
          <rect
             style="opacity:0.756222;fill:url(#linearGradient13465);fill-opacity:1;stroke:none;stroke-width:1.18286;stroke-opacity:1"
             id="rect13545"
             width="106.08748"
             height="860.95178"
             x="-829.68597"
             y="2830.5549" />
          <rect
             style="opacity:0.756222;fill:url(#linearGradient13466);fill-opacity:1;stroke:none;stroke-width:1.18286;stroke-opacity:1"
             id="rect13546"
             width="106.08748"
             height="860.95178"
             x="-782.48279"
             y="2836.811" />
          <rect
             style="opacity:0.756222;fill:url(#linearGradient13467);fill-opacity:1;stroke:none;stroke-width:1.18286;stroke-opacity:1"
             id="rect13547"
             width="106.08748"
             height="860.95178"
             x="-729.43909"
             y="2893.4492" />
          <rect
             style="opacity:0.756222;fill:url(#linearGradient13468);fill-opacity:1;stroke:none;stroke-width:1.18286;stroke-opacity:1"
             id="rect13548"
             width="106.08748"
             height="860.95178"
             x="-655.09497"
             y="2799.5486" />
          <rect
             style="opacity:0.756222;fill:url(#linearGradient13469);fill-opacity:1;stroke:none;stroke-width:1.18286;stroke-opacity:1"
             id="rect13549"
             width="106.08748"
             height="860.95178"
             x="-708.13867"
             y="2720.6494" />
          <rect
             style="opacity:0.756222;fill:url(#linearGradient13470);fill-opacity:1;stroke:none;stroke-width:1.18286;stroke-opacity:1"
             id="rect13550"
             width="106.08748"
             height="860.95178"
             x="-579.53345"
             y="2893.4492" />
          <rect
             style="opacity:0.756222;fill:url(#linearGradient13471);fill-opacity:1;stroke:none;stroke-width:1.18286;stroke-opacity:1"
             id="rect13551"
             width="106.08748"
             height="860.95178"
             x="-549.00745"
             y="2720.6494" />
          <rect
             style="opacity:0.756222;fill:url(#linearGradient13472);fill-opacity:1;stroke:none;stroke-width:1.18286;stroke-opacity:1"
             id="rect13552"
             width="106.08748"
             height="860.95178"
             x="-125.48129"
             y="2850.6733" />
          <rect
             style="opacity:0.756222;fill:url(#linearGradient13473);fill-opacity:1;stroke:none;stroke-width:1.18286;stroke-opacity:1"
             id="rect13553"
             width="106.08748"
             height="860.95178"
             x="-72.437592"
             y="2729.6594" />
          <rect
             style="opacity:0.756222;fill:url(#linearGradient13474);fill-opacity:1;stroke:none;stroke-width:1.18286;stroke-opacity:1"
             id="rect13554"
             width="106.08748"
             height="860.95178"
             x="-45.296661"
             y="2830.5549" />
          <rect
             style="opacity:0.756222;fill:url(#linearGradient13475);fill-opacity:1;stroke:none;stroke-width:1.18286;stroke-opacity:1"
             id="rect13555"
             width="106.08748"
             height="860.95178"
             x="1.9065247"
             y="2836.811" />
          <rect
             style="opacity:0.756222;fill:url(#linearGradient13476);fill-opacity:1;stroke:none;stroke-width:1.18286;stroke-opacity:1"
             id="rect13556"
             width="106.08748"
             height="860.95178"
             x="54.950226"
             y="2893.4492" />
          <rect
             style="opacity:0.756222;fill:url(#linearGradient13477);fill-opacity:1;stroke:none;stroke-width:1.18286;stroke-opacity:1"
             id="rect13557"
             width="106.08748"
             height="860.95178"
             x="129.29434"
             y="2799.5486" />
          <rect
             style="opacity:0.756222;fill:url(#linearGradient13478);fill-opacity:1;stroke:none;stroke-width:1.18286;stroke-opacity:1"
             id="rect13558"
             width="106.08748"
             height="860.95178"
             x="76.250641"
             y="2720.6494" />
          <rect
             style="opacity:0.756222;fill:url(#linearGradient13479);fill-opacity:1;stroke:none;stroke-width:1.18286;stroke-opacity:1"
             id="rect13559"
             width="106.08748"
             height="860.95178"
             x="204.85587"
             y="2893.4492" />
          <rect
             style="opacity:0.756222;fill:url(#linearGradient13480);fill-opacity:1;stroke:none;stroke-width:1.18286;stroke-opacity:1"
             id="rect13560"
             width="106.08748"
             height="860.95178"
             x="235.38187"
             y="2720.6494" />
        </g>
      </g>
    </g>
  </g>
</svg>
